junior/spring/ece242/labs/lab2/600HZ.CSV

Model,MSO2024B
Firmware Version,1.56

Point Format,Y,
Horizontal Units,S,
Horizontal Scale,4e-05,
Sample Interval,4e-09,
Filter Frequency,2e+08,
Record Length,100000,
Gating,0.0% to 100.0%,
Probe Attenuation,10,
Vertical Units,V,
Vertical Offset,0,
Vertical Scale,0.5,
Label,,
TIME,CH1,CH1 Peak Detect
-2.00000e-04,-0.04,-0.08
-1.99996e-04,-0.08,-0.04
-1.99992e-04,-0.06,-0.08
-1.99988e-04,-0.06,-0.06
-1.99984e-04,-0.06,-0.06
-1.99980e-04,-0.04,-0.04
-1.99976e-04,-0.08,-0.08
-1.99972e-04,-0.06,-0.04
-1.99968e-04,-0.06,-0.08
-1.99964e-04,-0.08,-0.04
-1.99960e-04,-0.06,-0.08
-1.99956e-04,-0.04,-0.04
-1.99952e-04,-0.04,-0.08
-1.99948e-04,-0.08,-0.04
-1.99944e-04,-0.08,-0.08
-1.99940e-04,-0.06,-0.06
-1.99936e-04,-0.08,-0.08
-1.99932e-04,-0.06,-0.06
-1.99928e-04,-0.08,-0.08
-1.99924e-04,-0.06,-0.04
-1.99920e-04,-0.06,-0.06
-1.99916e-04,-0.06,-0.04
-1.99912e-04,-0.06,-0.06
-1.99908e-04,-0.06,-0.04
-1.99904e-04,-0.06,-0.06
-1.99900e-04,-0.04,-0.04
-1.99896e-04,-0.06,-0.08
-1.99892e-04,-0.06,-0.02
-1.99888e-04,-0.06,-0.08
-1.99884e-04,-0.08,-0.04
-1.99880e-04,-0.04,-0.06
-1.99876e-04,-0.06,-0.04
-1.99872e-04,-0.06,-0.08
-1.99868e-04,-0.06,-0.04
-1.99864e-04,-0.06,-0.06
-1.99860e-04,-0.06,-0.04
-1.99856e-04,-0.06,-0.06
-1.99852e-04,-0.06,-0.04
-1.99848e-04,-0.04,-0.08
-1.99844e-04,-0.08,-0.02
-1.99840e-04,-0.06,-0.06
-1.99836e-04,-0.04,-0.04
-1.99832e-04,-0.06,-0.06
-1.99828e-04,-0.04,-0.02
-1.99824e-04,-0.06,-0.06
-1.99820e-04,-0.04,-0.04
-1.99816e-04,-0.06,-0.08
-1.99812e-04,-0.06,-0.02
-1.99808e-04,-0.04,-0.06
-1.99804e-04,-0.06,-0.04
-1.99800e-04,-0.04,-0.06
-1.99796e-04,-0.04,-0.02
-1.99792e-04,-0.08,-0.08
-1.99788e-04,-0.04,-0.02
-1.99784e-04,-0.08,-0.08
-1.99780e-04,-0.06,-0.02
-1.99776e-04,-0.04,-0.06
-1.99772e-04,-0.06,-0.04
-1.99768e-04,-0.02,-0.06
-1.99764e-04,-0.06,-0.02
-1.99760e-04,-0.06,-0.06
-1.99756e-04,-0.04,-0.02
-1.99752e-04,-0.06,-0.06
-1.99748e-04,-0.04,-0.04
-1.99744e-04,-0.06,-0.06
-1.99740e-04,-0.06,-0.02
-1.99736e-04,-0.04,-0.08
-1.99732e-04,-0.08,-0.04
-1.99728e-04,-0.04,-0.06
-1.99724e-04,-0.04,-0.02
-1.99720e-04,-0.06,-0.06
-1.99716e-04,-0.04,-0.02
-1.99712e-04,-0.06,-0.06
-1.99708e-04,-0.04,-0.04
-1.99704e-04,-0.04,-0.06
-1.99700e-04,-0.06,-0.02
-1.99696e-04,-0.02,-0.06
-1.99692e-04,-0.06,-0.02
-1.99688e-04,-0.06,-0.06
-1.99684e-04,-0.04,-0.02
-1.99680e-04,-0.08,-0.08
-1.99676e-04,-0.02,-0.02
-1.99672e-04,-0.06,-0.06
-1.99668e-04,-0.04,-0.02
-1.99664e-04,-0.04,-0.08
-1.99660e-04,-0.08,-0.02
-1.99656e-04,-0.02,-0.06
-1.99652e-04,-0.04,0
-1.99648e-04,-0.06,-0.06
-1.99644e-04,-0.04,-0.02
-1.99640e-04,-0.06,-0.06
-1.99636e-04,-0.02,-0.02
-1.99632e-04,-0.04,-0.06
-1.99628e-04,-0.06,-0.02
-1.99624e-04,-0.04,-0.06
-1.99620e-04,-0.06,-0.02
-1.99616e-04,-0.02,-0.06
-1.99612e-04,-0.06,-0.02
-1.99608e-04,-0.06,-0.08
-1.99604e-04,-0.02,-0.02
-1.99600e-04,-0.06,-0.06
-1.99596e-04,-0.04,-0.02
-1.99592e-04,-0.04,-0.04
-1.99588e-04,-0.04,-0.02
-1.99584e-04,0,-0.06
-1.99580e-04,-0.06,0
-1.99576e-04,-0.06,-0.08
-1.99572e-04,-0.02,-0.02
-1.99568e-04,-0.08,-0.08
-1.99564e-04,-0.04,-0.02
-1.99560e-04,-0.06,-0.06
-1.99556e-04,-0.04,0
-1.99552e-04,-0.04,-0.04
-1.99548e-04,-0.04,-0.02
-1.99544e-04,-0.02,-0.06
-1.99540e-04,-0.02,-0.02
-1.99536e-04,-0.06,-0.06
-1.99532e-04,-0.02,-0.02
-1.99528e-04,-0.06,-0.06
-1.99524e-04,-0.04,-0.02
-1.99520e-04,-0.02,-0.04
-1.99516e-04,-0.04,-0.02
-1.99512e-04,-0.02,-0.04
-1.99508e-04,-0.04,0
-1.99504e-04,-0.04,-0.06
-1.99500e-04,-0.02,0
-1.99496e-04,-0.04,-0.04
-1.99492e-04,0,0
-1.99488e-04,-0.06,-0.06
-1.99484e-04,-0.04,0
-1.99480e-04,-0.02,-0.04
-1.99476e-04,-0.04,0
-1.99472e-04,-0.02,-0.04
-1.99468e-04,-0.04,-0.02
-1.99464e-04,-0.06,-0.06
-1.99460e-04,-0.02,-0.02
-1.99456e-04,-0.04,-0.04
-1.99452e-04,0,0
-1.99448e-04,-0.04,-0.06
-1.99444e-04,-0.02,0
-1.99440e-04,-0.02,-0.04
-1.99436e-04,-0.02,-0.02
-1.99432e-04,-0.02,-0.06
-1.99428e-04,-0.06,-0.02
-1.99424e-04,-0.04,-0.06
-1.99420e-04,-0.02,-0.02
-1.99416e-04,-0.06,-0.06
-1.99412e-04,-0.02,-0.02
-1.99408e-04,-0.02,-0.04
-1.99404e-04,-0.04,-0.02
-1.99400e-04,-0.02,-0.02
-1.99396e-04,-0.02,0
-1.99392e-04,-0.04,-0.04
-1.99388e-04,0,0
-1.99384e-04,-0.04,-0.04
-1.99380e-04,-0.04,0
-1.99376e-04,-0.02,-0.06
-1.99372e-04,-0.04,-0.02
-1.99368e-04,-0.04,-0.04
-1.99364e-04,-0.04,-0.02
-1.99360e-04,-0.04,-0.04
-1.99356e-04,-0.02,0
-1.99352e-04,-0.04,-0.04
-1.99348e-04,0,0
-1.99344e-04,-0.04,-0.04
-1.99340e-04,-0.02,0
-1.99336e-04,0,-0.04
-1.99332e-04,-0.02,0
-1.99328e-04,0,-0.04
-1.99324e-04,-0.02,0
-1.99320e-04,-0.02,-0.04
-1.99316e-04,-0.04,0
-1.99312e-04,-0.02,-0.04
-1.99308e-04,-0.02,-0.02
-1.99304e-04,-0.04,-0.04
-1.99300e-04,-0.02,-0.02
-1.99296e-04,-0.04,-0.04
-1.99292e-04,-0.04,-0.02
-1.99288e-04,-0.02,-0.04
-1.99284e-04,-0.04,0
-1.99280e-04,-0.04,-0.04
-1.99276e-04,-0.02,-0.02
-1.99272e-04,-0.02,-0.04
-1.99268e-04,-0.02,0
-1.99264e-04,-0.02,-0.04
-1.99260e-04,-0.04,-0.02
-1.99256e-04,0,-0.02
-1.99252e-04,-0.02,0
-1.99248e-04,-0.02,-0.02
-1.99244e-04,-0.02,0
-1.99240e-04,-0.02,-0.04
-1.99236e-04,-0.02,0
-1.99232e-04,-0.02,-0.02
-1.99228e-04,-0.02,0
-1.99224e-04,-0.02,-0.02
-1.99220e-04,-0.02,0
-1.99216e-04,-0.02,-0.02
-1.99212e-04,-0.02,0
-1.99208e-04,0,-0.02
-1.99204e-04,-0.02,0
-1.99200e-04,-0.02,-0.02
-1.99196e-04,-0.02,-0.02
-1.99192e-04,-0.02,-0.02
-1.99188e-04,-0.02,0
-1.99184e-04,-0.02,-0.02
-1.99180e-04,-0.02,0
-1.99176e-04,0,-0.02
-1.99172e-04,-0.02,0
-1.99168e-04,0,-0.02
-1.99164e-04,0,0
-1.99160e-04,-0.02,-0.02
-1.99156e-04,0,0
-1.99152e-04,-0.02,-0.02
-1.99148e-04,-0.02,0
-1.99144e-04,0,-0.02
-1.99140e-04,-0.02,0
-1.99136e-04,0.02,-0.02
-1.99132e-04,-0.02,0.02
-1.99128e-04,-0.02,-0.02
-1.99124e-04,0,0
-1.99120e-04,-0.02,-0.02
-1.99116e-04,0,0
-1.99112e-04,0,-0.02
-1.99108e-04,0,0.02
-1.99104e-04,0,-0.02
-1.99100e-04,-0.02,0.02
-1.99096e-04,-0.02,-0.02
-1.99092e-04,0,0
-1.99088e-04,-0.02,-0.02
-1.99084e-04,0.02,0.02
-1.99080e-04,-0.02,-0.02
-1.99076e-04,-0.02,0.02
-1.99072e-04,-0.02,-0.02
-1.99068e-04,-0.02,0
-1.99064e-04,0,-0.02
-1.99060e-04,0,0
-1.99056e-04,-0.02,-0.02
-1.99052e-04,0.02,0.02
-1.99048e-04,-0.04,-0.04
-1.99044e-04,0,0.02
-1.99040e-04,0,-0.04
-1.99036e-04,-0.04,0.02
-1.99032e-04,0.02,-0.02
-1.99028e-04,-0.02,0.02
-1.99024e-04,0,-0.02
-1.99020e-04,0,0.02
-1.99016e-04,-0.02,-0.02
-1.99012e-04,0,0
-1.99008e-04,-0.02,-0.02
-1.99004e-04,0,0.02
-1.99000e-04,0,-0.02
-1.98996e-04,-0.02,0.02
-1.98992e-04,0,-0.02
-1.98988e-04,-0.02,0.02
-1.98984e-04,0,-0.02
-1.98980e-04,0.02,0.02
-1.98976e-04,-0.02,-0.02
-1.98972e-04,0.02,0.02
-1.98968e-04,0,-0.02
-1.98964e-04,0,0.02
-1.98960e-04,0.02,-0.02
-1.98956e-04,-0.02,0.02
-1.98952e-04,0,-0.02
-1.98948e-04,0.02,0.04
-1.98944e-04,-0.02,-0.02
-1.98940e-04,0.04,0.04
-1.98936e-04,-0.02,-0.02
-1.98932e-04,0,0.04
-1.98928e-04,0.02,-0.02
-1.98924e-04,-0.02,0.04
-1.98920e-04,0,0
-1.98916e-04,0,0.02
-1.98912e-04,-0.02,-0.02
-1.98908e-04,0,0.02
-1.98904e-04,-0.02,-0.02
-1.98900e-04,0.04,0.04
-1.98896e-04,0.02,-0.02
-1.98892e-04,-0.02,0.04
-1.98888e-04,0.04,-0.02
-1.98884e-04,-0.02,0.04
-1.98880e-04,0.02,-0.02
-1.98876e-04,0.02,0.02
-1.98872e-04,0,0
-1.98868e-04,0.02,0.04
-1.98864e-04,-0.02,-0.02
-1.98860e-04,0,0.02
-1.98856e-04,0,0
-1.98852e-04,0,0.04
-1.98848e-04,0.02,0
-1.98844e-04,0,0.04
-1.98840e-04,0.02,0
-1.98836e-04,0.02,0.04
-1.98832e-04,0,0
-1.98828e-04,0.02,0.04
-1.98824e-04,0,0
-1.98820e-04,0,0.02
-1.98816e-04,0.02,0
-1.98812e-04,0,0.02
-1.98808e-04,0.02,0
-1.98804e-04,0,0.02
-1.98800e-04,0.02,-0.02
-1.98796e-04,0.02,0.04
-1.98792e-04,-0.02,-0.02
-1.98788e-04,0.02,0.02
-1.98784e-04,0,-0.02
-1.98780e-04,-0.02,0.04
-1.98776e-04,0.02,0
-1.98772e-04,0,0.02
-1.98768e-04,0.02,0
-1.98764e-04,0.02,0.04
-1.98760e-04,0,0
-1.98756e-04,0.02,0.02
-1.98752e-04,0,0
-1.98748e-04,0,0.02
-1.98744e-04,0.02,-0.02
-1.98740e-04,-0.02,0.02
-1.98736e-04,0.04,0
-1.98732e-04,0.02,0.04
-1.98728e-04,0,0
-1.98724e-04,0.02,0.04
-1.98720e-04,-0.02,-0.02
-1.98716e-04,0.02,0.02
-1.98712e-04,0,0
-1.98708e-04,0,0.04
-1.98704e-04,0.02,0.02
-1.98700e-04,0.02,0.04
-1.98696e-04,0.02,0
-1.98692e-04,0,0.04
-1.98688e-04,0.02,0
-1.98684e-04,0.04,0.04
-1.98680e-04,0.02,0
-1.98676e-04,0.02,0.04
-1.98672e-04,0.02,0
-1.98668e-04,0,0.04
-1.98664e-04,0.02,0.02
-1.98660e-04,0.04,0.04
-1.98656e-04,0.02,0
-1.98652e-04,0.02,0.04
-1.98648e-04,0,0
-1.98644e-04,0.02,0.02
-1.98640e-04,0,0
-1.98636e-04,0.02,0.02
-1.98632e-04,0.02,0
-1.98628e-04,0,0.02
-1.98624e-04,0.02,0.02
-1.98620e-04,0.02,0.04
-1.98616e-04,0.02,0
-1.98612e-04,0.02,0.02
-1.98608e-04,0,0
-1.98604e-04,0.04,0.04
-1.98600e-04,0.02,0.02
-1.98596e-04,0.02,0.04
-1.98592e-04,0.04,0.02
-1.98588e-04,0.02,0.04
-1.98584e-04,0.02,0
-1.98580e-04,0,0.04
-1.98576e-04,0.04,0.02
-1.98572e-04,0.02,0.04
-1.98568e-04,0.02,0.02
-1.98564e-04,0.02,0.04
-1.98560e-04,0.04,0.02
-1.98556e-04,0.02,0.04
-1.98552e-04,0.02,0
-1.98548e-04,0,0.04
-1.98544e-04,0.02,0.02
-1.98540e-04,0.02,0.04
-1.98536e-04,0.02,0.02
-1.98532e-04,0.04,0.04
-1.98528e-04,0.02,0.02
-1.98524e-04,0.02,0.04
-1.98520e-04,0.04,0.02
-1.98516e-04,0.02,0.04
-1.98512e-04,0.04,0
-1.98508e-04,0,0.04
-1.98504e-04,0.02,0
-1.98500e-04,0.02,0.04
-1.98496e-04,0.02,0.02
-1.98492e-04,0.04,0.04
-1.98488e-04,0.02,0.02
-1.98484e-04,0.04,0.04
-1.98480e-04,0.02,0.02
-1.98476e-04,0.04,0.06
-1.98472e-04,0.04,0.02
-1.98468e-04,0.02,0.04
-1.98464e-04,0.02,0.02
-1.98460e-04,0.04,0.06
-1.98456e-04,0,0
-1.98452e-04,0.04,0.04
-1.98448e-04,0.02,0.02
-1.98444e-04,0.04,0.04
-1.98440e-04,0.04,0.02
-1.98436e-04,0.02,0.04
-1.98432e-04,0.04,0.04
-1.98428e-04,0.04,0.06
-1.98424e-04,0.04,0.04
-1.98420e-04,0.04,0.06
-1.98416e-04,0.02,0.02
-1.98412e-04,0.04,0.06
-1.98408e-04,0.04,0
-1.98404e-04,0,0.04
-1.98400e-04,0.06,0.02
-1.98396e-04,0.04,0.06
-1.98392e-04,0.02,0
-1.98388e-04,0.04,0.06
-1.98384e-04,0.02,0.02
-1.98380e-04,0.04,0.04
-1.98376e-04,0.02,0.02
-1.98372e-04,0.02,0.04
-1.98368e-04,0.06,0
-1.98364e-04,0,0.06
-1.98360e-04,0.04,0.02
-1.98356e-04,0.02,0.06
-1.98352e-04,0.02,0.02
-1.98348e-04,0.06,0.06
-1.98344e-04,0.02,0.02
-1.98340e-04,0.04,0.06
-1.98336e-04,0.04,0.02
-1.98332e-04,0.02,0.06
-1.98328e-04,0.06,0.04
-1.98324e-04,0.04,0.06
-1.98320e-04,0.04,0.02
-1.98316e-04,0.04,0.06
-1.98312e-04,0.02,0.02
-1.98308e-04,0.06,0.06
-1.98304e-04,0.04,0.02
-1.98300e-04,0.04,0.08
-1.98296e-04,0.06,0
-1.98292e-04,0,0.08
-1.98288e-04,0.06,0.02
-1.98284e-04,0.06,0.06
-1.98280e-04,0.04,0
-1.98276e-04,0.08,0.08
-1.98272e-04,0.04,0
-1.98268e-04,0.06,0.06
-1.98264e-04,0.02,0
-1.98260e-04,0.02,0.06
-1.98256e-04,0.06,0.02
-1.98252e-04,0.02,0.08
-1.98248e-04,0.06,0.02
-1.98244e-04,0.06,0.08
-1.98240e-04,0.02,0.02
-1.98236e-04,0.06,0.06
-1.98232e-04,0.04,0.02
-1.98228e-04,0.04,0.08
-1.98224e-04,0.06,0.02
-1.98220e-04,0.02,0.06
-1.98216e-04,0.06,0.02
-1.98212e-04,0.06,0.08
-1.98208e-04,0.04,0.02
-1.98204e-04,0.06,0.06
-1.98200e-04,0.02,0.02
-1.98196e-04,0.08,0.08
-1.98192e-04,0.06,0.04
-1.98188e-04,0.04,0.08
-1.98184e-04,0.08,0.04
-1.98180e-04,0.04,0.08
-1.98176e-04,0.04,0.02
-1.98172e-04,0.06,0.08
-1.98168e-04,0.02,0.02
-1.98164e-04,0.04,0.06
-1.98160e-04,0.06,0.02
-1.98156e-04,0.04,0.06
-1.98152e-04,0.06,0.02
-1.98148e-04,0.02,0.08
-1.98144e-04,0.04,0.02
-1.98140e-04,0.06,0.06
-1.98136e-04,0.04,0.04
-1.98132e-04,0.06,0.06
-1.98128e-04,0.04,0.04
-1.98124e-04,0.06,0.06
-1.98120e-04,0.06,0.04
-1.98116e-04,0.04,0.1
-1.98112e-04,0.04,0.04
-1.98108e-04,0.04,0.06
-1.98104e-04,0.06,0.04
-1.98100e-04,0.06,0.08
-1.98096e-04,0.04,0.04
-1.98092e-04,0.06,0.08
-1.98088e-04,0.04,0.04
-1.98084e-04,0.04,0.06
-1.98080e-04,0.1,0.06
-1.98076e-04,0.06,0.1
-1.98072e-04,0.06,0.04
-1.98068e-04,0.04,0.08
-1.98064e-04,0.06,0.04
-1.98060e-04,0.08,0.1
-1.98056e-04,0.06,0.04
-1.98052e-04,0.06,0.08
-1.98048e-04,0.06,0.06
-1.98044e-04,0.06,0.08
-1.98040e-04,0.06,0.04
-1.98036e-04,0.04,0.08
-1.98032e-04,0.06,0.02
-1.98028e-04,0.06,0.08
-1.98024e-04,0.06,0.06
-1.98020e-04,0.06,0.08
-1.98016e-04,0.06,0.04
-1.98012e-04,0.06,0.08
-1.98008e-04,0.06,0.04
-1.98004e-04,0.04,0.08
-1.98000e-04,0.06,0.04
-1.97996e-04,0.04,0.08
-1.97992e-04,0.06,0.04
-1.97988e-04,0.06,0.08
-1.97984e-04,0.04,0.04
-1.97980e-04,0.06,0.06
-1.97976e-04,0.06,0.06
-1.97972e-04,0.06,0.08
-1.97968e-04,0.08,0.04
-1.97964e-04,0.06,0.08
-1.97960e-04,0.06,0.06
-1.97956e-04,0.06,0.08
-1.97952e-04,0.06,0.04
-1.97948e-04,0.06,0.06
-1.97944e-04,0.06,0.06
-1.97940e-04,0.06,0.06
-1.97936e-04,0.04,0.04
-1.97932e-04,0.06,0.08
-1.97928e-04,0.06,0.06
-1.97924e-04,0.06,0.08
-1.97920e-04,0.06,0.06
-1.97916e-04,0.08,0.08
-1.97912e-04,0.08,0.06
-1.97908e-04,0.06,0.08
-1.97904e-04,0.08,0.06
-1.97900e-04,0.06,0.08
-1.97896e-04,0.04,0.04
-1.97892e-04,0.06,0.06
-1.97888e-04,0.06,0.06
-1.97884e-04,0.08,0.08
-1.97880e-04,0.06,0.06
-1.97876e-04,0.06,0.08
-1.97872e-04,0.04,0.04
-1.97868e-04,0.08,0.08
-1.97864e-04,0.06,0.06
-1.97860e-04,0.08,0.08
-1.97856e-04,0.08,0.06
-1.97852e-04,0.06,0.08
-1.97848e-04,0.06,0.06
-1.97844e-04,0.06,0.08
-1.97840e-04,0.08,0.06
-1.97836e-04,0.1,0.1
-1.97832e-04,0.04,0.04
-1.97828e-04,0.08,0.1
-1.97824e-04,0.08,0.04
-1.97820e-04,0.06,0.08
-1.97816e-04,0.08,0.06
-1.97812e-04,0.06,0.1
-1.97808e-04,0.06,0.04
-1.97804e-04,0.08,0.08
-1.97800e-04,0.06,0.06
-1.97796e-04,0.1,0.1
-1.97792e-04,0.08,0.08
-1.97788e-04,0.08,0.1
-1.97784e-04,0.06,0.04
-1.97780e-04,0.06,0.1
-1.97776e-04,0.1,0.06
-1.97772e-04,0.06,0.1
-1.97768e-04,0.08,0.04
-1.97764e-04,0.08,0.1
-1.97760e-04,0.08,0.06
-1.97756e-04,0.08,0.1
-1.97752e-04,0.06,0.06
-1.97748e-04,0.08,0.08
-1.97744e-04,0.08,0.06
-1.97740e-04,0.06,0.1
-1.97736e-04,0.08,0.06
-1.97732e-04,0.06,0.1
-1.97728e-04,0.08,0.06
-1.97724e-04,0.08,0.1
-1.97720e-04,0.06,0.06
-1.97716e-04,0.1,0.1
-1.97712e-04,0.08,0.04
-1.97708e-04,0.06,0.1
-1.97704e-04,0.1,0.08
-1.97700e-04,0.08,0.1
-1.97696e-04,0.08,0.06
-1.97692e-04,0.08,0.1
-1.97688e-04,0.08,0.08
-1.97684e-04,0.1,0.1
-1.97680e-04,0.08,0.06
-1.97676e-04,0.1,0.1
-1.97672e-04,0.08,0.06
-1.97668e-04,0.06,0.1
-1.97664e-04,0.1,0.08
-1.97660e-04,0.08,0.1
-1.97656e-04,0.1,0.06
-1.97652e-04,0.08,0.12
-1.97648e-04,0.06,0.06
-1.97644e-04,0.12,0.12
-1.97640e-04,0.08,0.06
-1.97636e-04,0.1,0.12
-1.97632e-04,0.08,0.06
-1.97628e-04,0.06,0.1
-1.97624e-04,0.1,0.08
-1.97620e-04,0.08,0.1
-1.97616e-04,0.06,0.04
-1.97612e-04,0.1,0.12
-1.97608e-04,0.08,0.08
-1.97604e-04,0.1,0.1
-1.97600e-04,0.08,0.08
-1.97596e-04,0.08,0.1
-1.97592e-04,0.1,0.06
-1.97588e-04,0.06,0.1
-1.97584e-04,0.1,0.06
-1.97580e-04,0.08,0.12
-1.97576e-04,0.08,0.06
-1.97572e-04,0.12,0.12
-1.97568e-04,0.08,0.08
-1.97564e-04,0.08,0.12
-1.97560e-04,0.1,0.08
-1.97556e-04,0.08,0.12
-1.97552e-04,0.12,0.08
-1.97548e-04,0.08,0.12
-1.97544e-04,0.1,0.08
-1.97540e-04,0.1,0.1
-1.97536e-04,0.08,0.08
-1.97532e-04,0.1,0.1
-1.97528e-04,0.08,0.08
-1.97524e-04,0.08,0.12
-1.97520e-04,0.1,0.08
-1.97516e-04,0.08,0.12
-1.97512e-04,0.1,0.08
-1.97508e-04,0.1,0.12
-1.97504e-04,0.06,0.06
-1.97500e-04,0.12,0.12
-1.97496e-04,0.1,0.08
-1.97492e-04,0.1,0.12
-1.97488e-04,0.1,0.08
-1.97484e-04,0.08,0.1
-1.97480e-04,0.12,0.08
-1.97476e-04,0.08,0.12
-1.97472e-04,0.08,0.08
-1.97468e-04,0.12,0.12
-1.97464e-04,0.06,0.06
-1.97460e-04,0.1,0.1
-1.97456e-04,0.1,0.06
-1.97452e-04,0.08,0.1
-1.97448e-04,0.1,0.08
-1.97444e-04,0.08,0.1
-1.97440e-04,0.1,0.08
-1.97436e-04,0.1,0.1
-1.97432e-04,0.1,0.1
-1.97428e-04,0.12,0.12
-1.97424e-04,0.08,0.08
-1.97420e-04,0.1,0.12
-1.97416e-04,0.1,0.08
-1.97412e-04,0.08,0.1
-1.97408e-04,0.12,0.1
-1.97404e-04,0.1,0.12
-1.97400e-04,0.1,0.1
-1.97396e-04,0.1,0.12
-1.97392e-04,0.08,0.08
-1.97388e-04,0.1,0.12
-1.97384e-04,0.08,0.08
-1.97380e-04,0.1,0.12
-1.97376e-04,0.1,0.1
-1.97372e-04,0.1,0.12
-1.97368e-04,0.1,0.08
-1.97364e-04,0.08,0.12
-1.97360e-04,0.1,0.08
-1.97356e-04,0.1,0.1
-1.97352e-04,0.1,0.08
-1.97348e-04,0.08,0.1
-1.97344e-04,0.1,0.1
-1.97340e-04,0.1,0.12
-1.97336e-04,0.1,0.08
-1.97332e-04,0.1,0.1
-1.97328e-04,0.1,0.1
-1.97324e-04,0.1,0.12
-1.97320e-04,0.1,0.1
-1.97316e-04,0.1,0.12
-1.97312e-04,0.1,0.1
-1.97308e-04,0.1,0.12
-1.97304e-04,0.1,0.1
-1.97300e-04,0.1,0.12
-1.97296e-04,0.12,0.1
-1.97292e-04,0.1,0.12
-1.97288e-04,0.12,0.1
-1.97284e-04,0.1,0.12
-1.97280e-04,0.1,0.1
-1.97276e-04,0.12,0.12
-1.97272e-04,0.1,0.1
-1.97268e-04,0.1,0.12
-1.97264e-04,0.12,0.1
-1.97260e-04,0.1,0.12
-1.97256e-04,0.1,0.1
-1.97252e-04,0.12,0.12
-1.97248e-04,0.1,0.1
-1.97244e-04,0.1,0.12
-1.97240e-04,0.1,0.1
-1.97236e-04,0.1,0.12
-1.97232e-04,0.12,0.1
-1.97228e-04,0.12,0.12
-1.97224e-04,0.12,0.1
-1.97220e-04,0.12,0.14
-1.97216e-04,0.12,0.1
-1.97212e-04,0.12,0.12
-1.97208e-04,0.1,0.1
-1.97204e-04,0.12,0.12
-1.97200e-04,0.1,0.1
-1.97196e-04,0.1,0.12
-1.97192e-04,0.12,0.08
-1.97188e-04,0.08,0.12
-1.97184e-04,0.12,0.12
-1.97180e-04,0.12,0.12
-1.97176e-04,0.1,0.08
-1.97172e-04,0.12,0.12
-1.97168e-04,0.12,0.12
-1.97164e-04,0.12,0.12
-1.97160e-04,0.12,0.1
-1.97156e-04,0.1,0.12
-1.97152e-04,0.12,0.1
-1.97148e-04,0.12,0.12
-1.97144e-04,0.12,0.12
-1.97140e-04,0.12,0.14
-1.97136e-04,0.12,0.1
-1.97132e-04,0.14,0.14
-1.97128e-04,0.1,0.1
-1.97124e-04,0.12,0.14
-1.97120e-04,0.12,0.1
-1.97116e-04,0.1,0.14
-1.97112e-04,0.14,0.08
-1.97108e-04,0.08,0.16
-1.97104e-04,0.12,0.1
-1.97100e-04,0.1,0.12
-1.97096e-04,0.12,0.1
-1.97092e-04,0.12,0.12
-1.97088e-04,0.1,0.1
-1.97084e-04,0.12,0.14
-1.97080e-04,0.14,0.1
-1.97076e-04,0.1,0.16
-1.97072e-04,0.14,0.1
-1.97068e-04,0.1,0.14
-1.97064e-04,0.12,0.12
-1.97060e-04,0.12,0.14
-1.97056e-04,0.12,0.12
-1.97052e-04,0.12,0.12
-1.97048e-04,0.12,0.12
-1.97044e-04,0.12,0.14
-1.97040e-04,0.12,0.12
-1.97036e-04,0.12,0.12
-1.97032e-04,0.12,0.12
-1.97028e-04,0.12,0.14
-1.97024e-04,0.1,0.1
-1.97020e-04,0.12,0.12
-1.97016e-04,0.12,0.1
-1.97012e-04,0.12,0.12
-1.97008e-04,0.12,0.1
-1.97004e-04,0.12,0.16
-1.97000e-04,0.14,0.1
-1.96996e-04,0.1,0.16
-1.96992e-04,0.12,0.1
-1.96988e-04,0.14,0.14
-1.96984e-04,0.12,0.12
-1.96980e-04,0.16,0.16
-1.96976e-04,0.14,0.1
-1.96972e-04,0.12,0.16
-1.96968e-04,0.14,0.1
-1.96964e-04,0.1,0.14
-1.96960e-04,0.14,0.1
-1.96956e-04,0.14,0.14
-1.96952e-04,0.12,0.1
-1.96948e-04,0.12,0.14
-1.96944e-04,0.1,0.1
-1.96940e-04,0.12,0.14
-1.96936e-04,0.14,0.1
-1.96932e-04,0.1,0.14
-1.96928e-04,0.14,0.1
-1.96924e-04,0.1,0.14
-1.96920e-04,0.14,0.1
-1.96916e-04,0.12,0.16
-1.96912e-04,0.12,0.12
-1.96908e-04,0.16,0.16
-1.96904e-04,0.12,0.12
-1.96900e-04,0.12,0.14
-1.96896e-04,0.12,0.1
-1.96892e-04,0.12,0.14
-1.96888e-04,0.14,0.12
-1.96884e-04,0.12,0.14
-1.96880e-04,0.12,0.1
-1.96876e-04,0.14,0.16
-1.96872e-04,0.12,0.12
-1.96868e-04,0.16,0.16
-1.96864e-04,0.14,0.12
-1.96860e-04,0.12,0.16
-1.96856e-04,0.16,0.12
-1.96852e-04,0.12,0.16
-1.96848e-04,0.16,0.1
-1.96844e-04,0.14,0.16
-1.96840e-04,0.1,0.1
-1.96836e-04,0.16,0.16
-1.96832e-04,0.12,0.12
-1.96828e-04,0.12,0.16
-1.96824e-04,0.14,0.12
-1.96820e-04,0.12,0.14
-1.96816e-04,0.14,0.14
-1.96812e-04,0.14,0.14
-1.96808e-04,0.14,0.12
-1.96804e-04,0.14,0.16
-1.96800e-04,0.1,0.1
-1.96796e-04,0.16,0.16
-1.96792e-04,0.14,0.1
-1.96788e-04,0.12,0.16
-1.96784e-04,0.16,0.1
-1.96780e-04,0.1,0.16
-1.96776e-04,0.16,0.12
-1.96772e-04,0.14,0.16
-1.96768e-04,0.12,0.12
-1.96764e-04,0.16,0.16
-1.96760e-04,0.12,0.12
-1.96756e-04,0.16,0.16
-1.96752e-04,0.16,0.12
-1.96748e-04,0.12,0.16
-1.96744e-04,0.14,0.12
-1.96740e-04,0.12,0.16
-1.96736e-04,0.12,0.12
-1.96732e-04,0.14,0.16
-1.96728e-04,0.14,0.14
-1.96724e-04,0.16,0.16
-1.96720e-04,0.14,0.12
-1.96716e-04,0.14,0.16
-1.96712e-04,0.14,0.12
-1.96708e-04,0.12,0.16
-1.96704e-04,0.14,0.12
-1.96700e-04,0.14,0.16
-1.96696e-04,0.12,0.1
-1.96692e-04,0.14,0.16
-1.96688e-04,0.12,0.12
-1.96684e-04,0.16,0.16
-1.96680e-04,0.16,0.12
-1.96676e-04,0.14,0.18
-1.96672e-04,0.14,0.12
-1.96668e-04,0.12,0.16
-1.96664e-04,0.14,0.14
-1.96660e-04,0.14,0.16
-1.96656e-04,0.14,0.14
-1.96652e-04,0.16,0.16
-1.96648e-04,0.12,0.12
-1.96644e-04,0.14,0.16
-1.96640e-04,0.16,0.12
-1.96636e-04,0.12,0.18
-1.96632e-04,0.16,0.12
-1.96628e-04,0.14,0.16
-1.96624e-04,0.14,0.14
-1.96620e-04,0.14,0.16
-1.96616e-04,0.12,0.12
-1.96612e-04,0.16,0.16
-1.96608e-04,0.14,0.14
-1.96604e-04,0.16,0.16
-1.96600e-04,0.16,0.14
-1.96596e-04,0.14,0.16
-1.96592e-04,0.14,0.14
-1.96588e-04,0.16,0.16
-1.96584e-04,0.14,0.12
-1.96580e-04,0.12,0.16
-1.96576e-04,0.14,0.14
-1.96572e-04,0.16,0.16
-1.96568e-04,0.16,0.14
-1.96564e-04,0.16,0.16
-1.96560e-04,0.16,0.14
-1.96556e-04,0.14,0.18
-1.96552e-04,0.16,0.14
