junior/spring/ece242/labs/lab2/PART3.CSV

Model,MSO2024B
Firmware Version,1.56

Point Format,Y
Horizontal Units,Hz
Horizontal Scale,130200
Sample Interval,260.4
Filter Frequency,2e+08
Record Length,5000
Gating,0.0% to 100.0%
Probe Attenuation,1
Vertical Units,NONE
Vertical Offset,0
Vertical Scale,20
Label,
TIME,MATH
0.0000e+00,-46.0219
2.6040e+02,-44.1281
5.2080e+02,-42.2344
7.8120e+02,-47.5906
1.0416e+03,-52.9438
1.3020e+03,-55.0187
1.5624e+03,-57.0938
1.8228e+03,-54.3125
2.0832e+03,-51.5312
2.3436e+03,-52.8062
2.6040e+03,-54.0812
2.8644e+03,-52.5781
3.1248e+03,-51.0719
3.3852e+03,-52.0094
3.6456e+03,-52.9438
3.9060e+03,-52.9438
4.1664e+03,-52.9438
4.4268e+03,-52.9438
4.6872e+03,-52.9438
4.9476e+03,-52.9438
5.2080e+03,-52.9438
5.4684e+03,-53.5125
5.7288e+03,-54.0812
5.9892e+03,-53.5125
6.2496e+03,-52.9438
6.5100e+03,-50.5031
6.7704e+03,-48.0625
7.0308e+03,-47.0094
7.2912e+03,-45.9531
7.5516e+03,-40.1875
7.8120e+03,-34.4219
8.0724e+03,-32.625
8.3328e+03,-30.8281
8.5932e+03,-22.775
8.8536e+03,-14.7188
9.1140e+03,-16.5469
9.3744e+03,-18.375
9.6348e+03,-11.0656
9.8952e+03,-3.75312
1.0156e+04,-4.69062
1.0416e+04,-5.625
1.0676e+04,-9.7375
1.0937e+04,-13.8469
1.1197e+04,-16.4844
1.1458e+04,-19.1219
1.1718e+04,-25.4562
1.1978e+04,-31.7906
1.2239e+04,-35.0031
1.2499e+04,-38.2156
1.2760e+04,-49.6437
1.3020e+04,-61.0719
1.3280e+04,-58.0625
1.3541e+04,-55.0531
1.3801e+04,-55.0531
1.4062e+04,-55.0531
1.4322e+04,-56.075
1.4582e+04,-57.0938
1.4843e+04,-56.075
1.5103e+04,-55.0531
1.5364e+04,-54
1.5624e+04,-52.9438
1.5884e+04,-53.5125
1.6145e+04,-54.0812
1.6405e+04,-55.5875
1.6666e+04,-57.0938
1.6926e+04,-56.075
1.7186e+04,-55.0531
1.7447e+04,-55.0531
1.7707e+04,-55.0531
1.7968e+04,-58.0625
1.8228e+04,-61.0719
1.8488e+04,-58.0625
1.8749e+04,-55.0531
1.9009e+04,-54
1.9270e+04,-52.9438
1.9530e+04,-52.0094
1.9790e+04,-51.0719
2.0051e+04,-54.5688
2.0311e+04,-58.0625
2.0572e+04,-55.5031
2.0832e+04,-52.9438
2.1092e+04,-55.0187
2.1353e+04,-57.0938
2.1613e+04,-59.0844
2.1874e+04,-61.0719
2.2134e+04,-59.0844
2.2394e+04,-57.0938
2.2655e+04,-55.5875
2.2915e+04,-54.0812
2.3176e+04,-55.5875
2.3436e+04,-57.0938
2.3696e+04,-56.075
2.3957e+04,-55.0531
2.4217e+04,-55.0531
2.4478e+04,-55.0531
2.4738e+04,-55.0531
2.4998e+04,-55.0531
2.5259e+04,-58.0625
2.5519e+04,-61.0719
2.5780e+04,-58.0625
2.6040e+04,-55.0531
2.6300e+04,-55.0531
2.6561e+04,-55.0531
2.6821e+04,-56.075
2.7082e+04,-57.0938
2.7342e+04,-57.0938
2.7602e+04,-57.0938
2.7863e+04,-57.0938
2.8123e+04,-57.0938
2.8384e+04,-56.075
2.8644e+04,-55.0531
2.8904e+04,-56.075
2.9165e+04,-57.0938
2.9425e+04,-55.0187
2.9686e+04,-52.9438
2.9946e+04,-54
3.0206e+04,-55.0531
3.0467e+04,-55.0531
3.0727e+04,-55.0531
3.0988e+04,-54
3.1248e+04,-52.9438
3.1508e+04,-57.0094
3.1769e+04,-61.0719
3.2029e+04,-58.0625
3.2290e+04,-55.0531
3.2550e+04,-58.0625
3.2810e+04,-61.0719
3.3071e+04,-57.0094
3.3331e+04,-52.9438
3.3592e+04,-55.0187
3.3852e+04,-57.0938
3.4112e+04,-59.0844
3.4373e+04,-61.0719
3.4633e+04,-57.0094
3.4894e+04,-52.9438
3.5154e+04,-57.0094
3.5414e+04,-61.0719
3.5675e+04,-58.0625
3.5935e+04,-55.0531
3.6196e+04,-58.0625
3.6456e+04,-61.0719
3.6716e+04,-58.0625
3.6977e+04,-55.0531
3.7237e+04,-56.075
3.7498e+04,-57.0938
3.7758e+04,-59.0844
3.8018e+04,-61.0719
3.8279e+04,-57.5781
3.8539e+04,-54.0812
3.8800e+04,-54.0812
3.9060e+04,-54.0812
3.9320e+04,-57.5781
3.9581e+04,-61.0719
3.9841e+04,-59.0844
4.0102e+04,-57.0938
4.0362e+04,-55.0187
4.0622e+04,-52.9438
4.0883e+04,-58.5125
4.1143e+04,-64.0812
4.1404e+04,-58.5125
4.1664e+04,-52.9438
4.1924e+04,-55.5031
4.2185e+04,-58.0625
4.2445e+04,-56.0719
4.2706e+04,-54.0812
4.2966e+04,-55.5875
4.3226e+04,-57.0938
4.3487e+04,-57.0938
4.3747e+04,-57.0938
4.4008e+04,-57.0938
4.4268e+04,-57.0938
4.4528e+04,-56.075
4.4789e+04,-55.0531
4.5049e+04,-56.075
4.5310e+04,-57.0938
4.5570e+04,-56.075
4.5830e+04,-55.0531
4.6091e+04,-58.0625
4.6351e+04,-61.0719
4.6612e+04,-58.0625
4.6872e+04,-55.0531
4.7132e+04,-56.075
4.7393e+04,-57.0938
4.7653e+04,-57.0938
4.7914e+04,-57.0938
4.8174e+04,-57.0938
4.8434e+04,-57.0938
4.8695e+04,-59.0844
4.8955e+04,-61.0719
4.9216e+04,-59.0844
4.9476e+04,-57.0938
4.9736e+04,-56.075
4.9997e+04,-55.0531
5.0257e+04,-55.0531
5.0518e+04,-55.0531
5.0778e+04,-56.075
5.1038e+04,-57.0938
5.1299e+04,-59.0844
5.1559e+04,-61.0719
5.1820e+04,-59.0844
5.2080e+04,-57.0938
5.2340e+04,-57.0938
5.2601e+04,-57.0938
5.2861e+04,-56.075
5.3122e+04,-55.0531
5.3382e+04,-58.0625
5.3642e+04,-61.0719
5.3903e+04,-59.0844
5.4163e+04,-57.0938
5.4424e+04,-59.0844
5.4684e+04,-61.0719
5.4944e+04,-59.0844
5.5205e+04,-57.0938
5.5465e+04,-57.0938
5.5726e+04,-57.0938
5.5986e+04,-56.075
5.6246e+04,-55.0531
5.6507e+04,-56.075
5.6767e+04,-57.0938
5.7028e+04,-56.075
5.7288e+04,-55.0531
5.7548e+04,-56.075
5.7809e+04,-57.0938
5.8069e+04,-55.0187
5.8330e+04,-52.9438
5.8590e+04,-57.0094
5.8850e+04,-61.0719
5.9111e+04,-59.0844
5.9371e+04,-57.0938
5.9632e+04,-56.075
5.9892e+04,-55.0531
6.0152e+04,-56.075
6.0413e+04,-57.0938
6.0673e+04,-56.075
6.0934e+04,-55.0531
6.1194e+04,-55.0531
6.1454e+04,-55.0531
6.1715e+04,-59.5688
6.1975e+04,-64.0812
6.2236e+04,-59.5688
6.2496e+04,-55.0531
6.2756e+04,-56.075
6.3017e+04,-57.0938
6.3277e+04,-56.075
6.3538e+04,-55.0531
6.3798e+04,-59.5688
6.4058e+04,-64.0812
6.4319e+04,-59.5688
6.4579e+04,-55.0531
6.4840e+04,-55.0531
6.5100e+04,-55.0531
6.5360e+04,-58.0625
6.5621e+04,-61.0719
6.5881e+04,-59.5688
6.6142e+04,-58.0625
6.6402e+04,-56.5594
6.6662e+04,-55.0531
6.6923e+04,-56.075
6.7183e+04,-57.0938
6.7444e+04,-57.0938
6.7704e+04,-57.0938
6.7964e+04,-55.5875
6.8225e+04,-54.0812
6.8485e+04,-55.5875
6.8746e+04,-57.0938
6.9006e+04,-57.0938
6.9266e+04,-57.0938
6.9527e+04,-56.075
6.9787e+04,-55.0531
7.0048e+04,-54
7.0308e+04,-52.9438
7.0568e+04,-57.0094
7.0829e+04,-61.0719
7.1089e+04,-61.0719
7.1350e+04,-61.0719
7.1610e+04,-57.0094
7.1870e+04,-52.9438
7.2131e+04,-55.0187
7.2391e+04,-57.0938
7.2652e+04,-57.0938
7.2912e+04,-57.0938
7.3172e+04,-57.0938
7.3433e+04,-57.0938
7.3693e+04,-55.0187
7.3954e+04,-52.9438
7.4214e+04,-55.0187
7.4474e+04,-57.0938
7.4735e+04,-57.0938
7.4995e+04,-57.0938
7.5256e+04,-55.0187
7.5516e+04,-52.9438
7.5776e+04,-54
7.6037e+04,-55.0531
7.6297e+04,-58.0625
7.6558e+04,-61.0719
7.6818e+04,-58.0625
7.7078e+04,-55.0531
7.7339e+04,-54.5688
7.7599e+04,-54.0812
7.7860e+04,-57.5781
7.8120e+04,-61.0719
7.8380e+04,-58.0625
7.8641e+04,-55.0531
7.8901e+04,-58.0625
7.9162e+04,-61.0719
7.9422e+04,-57.5781
7.9682e+04,-54.0812
7.9943e+04,-55.5875
8.0203e+04,-57.0938
8.0464e+04,-57.0938
8.0724e+04,-57.0938
8.0984e+04,-59.0844
8.1245e+04,-61.0719
8.1505e+04,-57.0094
8.1766e+04,-52.9438
8.2026e+04,-55.0187
8.2286e+04,-57.0938
8.2547e+04,-57.0938
8.2807e+04,-57.0938
8.3068e+04,-56.075
8.3328e+04,-55.0531
8.3588e+04,-55.0531
8.3849e+04,-55.0531
8.4109e+04,-58.0625
8.4370e+04,-61.0719
8.4630e+04,-59.0844
8.4890e+04,-57.0938
8.5151e+04,-60.5875
8.5411e+04,-64.0812
8.5672e+04,-59.5688
8.5932e+04,-55.0531
8.6192e+04,-54.5688
8.6453e+04,-54.0812
8.6713e+04,-57.5781
8.6974e+04,-61.0719
8.7234e+04,-58.0625
8.7494e+04,-55.0531
8.7755e+04,-56.075
8.8015e+04,-57.0938
8.8276e+04,-57.0938
8.8536e+04,-57.0938
8.8796e+04,-57.0938
8.9057e+04,-57.0938
8.9317e+04,-57.0938
8.9578e+04,-57.0938
8.9838e+04,-56.075
9.0098e+04,-55.0531
9.0359e+04,-56.075
9.0619e+04,-57.0938
9.0880e+04,-57.0938
9.1140e+04,-57.0938
9.1400e+04,-59.0844
9.1661e+04,-61.0719
9.1921e+04,-56.0719
9.2182e+04,-51.0719
9.2442e+04,-56.0719
9.2702e+04,-61.0719
9.2963e+04,-57.0094
9.3223e+04,-52.9438
9.3484e+04,-57.0094
9.3744e+04,-61.0719
9.4004e+04,-58.0625
9.4265e+04,-55.0531
9.4525e+04,-55.0531
9.4786e+04,-55.0531
9.5046e+04,-55.0531
9.5306e+04,-55.0531
9.5567e+04,-56.075
9.5827e+04,-57.0938
9.6088e+04,-56.075
9.6348e+04,-55.0531
9.6608e+04,-56.075
9.6869e+04,-57.0938
9.7129e+04,-56.075
9.7390e+04,-55.0531
9.7650e+04,-56.075
9.7910e+04,-57.0938
9.8171e+04,-55.0187
9.8431e+04,-52.9438
9.8692e+04,-57.0094
9.8952e+04,-61.0719
9.9212e+04,-58.0625
9.9473e+04,-55.0531
9.9733e+04,-54
9.9994e+04,-52.9438
1.0025e+05,-57.0094
1.0051e+05,-61.0719
1.0077e+05,-61.0719
1.0104e+05,-61.0719
1.0130e+05,-57.0094
1.0156e+05,-52.9438
1.0182e+05,-55.5031
1.0208e+05,-58.0625
1.0234e+05,-56.5594
1.0260e+05,-55.0531
1.0286e+05,-56.075
1.0312e+05,-57.0938
1.0338e+05,-56.075
1.0364e+05,-55.0531
1.0390e+05,-59.5688
1.0416e+05,-64.0812
1.0442e+05,-59.5688
1.0468e+05,-55.0531
1.0494e+05,-56.075
1.0520e+05,-57.0938
1.0546e+05,-57.0938
1.0572e+05,-57.0938
1.0598e+05,-59.0844
1.0624e+05,-61.0719
1.0650e+05,-58.0625
1.0676e+05,-55.0531
1.0702e+05,-56.075
1.0728e+05,-57.0938
1.0755e+05,-55.5875
1.0781e+05,-54.0812
1.0807e+05,-54.3125
1.0833e+05,-54.5406
1.0859e+05,-55.8188
1.0885e+05,-57.0938
1.0911e+05,-57.0938
1.0937e+05,-57.0938
1.0963e+05,-57.0938
1.0989e+05,-57.0938
1.1015e+05,-57.0938
1.1041e+05,-57.0938
1.1067e+05,-57.0938
1.1093e+05,-57.0938
1.1119e+05,-57.0938
1.1145e+05,-57.0938
1.1171e+05,-55.5875
1.1197e+05,-54.0812
1.1223e+05,-55.5875
1.1249e+05,-57.0938
1.1275e+05,-56.075
1.1301e+05,-55.0531
1.1327e+05,-58.0625
1.1353e+05,-61.0719
1.1379e+05,-59.0844
1.1406e+05,-57.0938
1.1432e+05,-57.0938
1.1458e+05,-57.0938
1.1484e+05,-57.5781
1.1510e+05,-58.0625
1.1536e+05,-59.5688
1.1562e+05,-61.0719
1.1588e+05,-61.0719
1.1614e+05,-61.0719
1.1640e+05,-58.0625
1.1666e+05,-55.0531
1.1692e+05,-56.075
1.1718e+05,-57.0938
1.1744e+05,-59.0844
1.1770e+05,-61.0719
1.1796e+05,-58.0625
1.1822e+05,-55.0531
1.1848e+05,-58.0625
1.1874e+05,-61.0719
1.1900e+05,-61.0719
1.1926e+05,-61.0719
1.1952e+05,-61.0719
1.1978e+05,-61.0719
1.2004e+05,-59.0844
1.2030e+05,-57.0938
1.2057e+05,-55.0187
1.2083e+05,-52.9438
1.2109e+05,-55.0187
1.2135e+05,-57.0938
1.2161e+05,-59.0844
1.2187e+05,-61.0719
1.2213e+05,-61.0719
1.2239e+05,-61.0719
1.2265e+05,-61.0719
1.2291e+05,-61.0719
1.2317e+05,-58.0625
1.2343e+05,-55.0531
1.2369e+05,-59.5688
1.2395e+05,-64.0812
1.2421e+05,-59.5688
1.2447e+05,-55.0531
1.2473e+05,-56.075
1.2499e+05,-57.0938
1.2525e+05,-57.0938
1.2551e+05,-57.0938
1.2577e+05,-57.0938
1.2603e+05,-57.0938
1.2629e+05,-59.0844
1.2655e+05,-61.0719
1.2681e+05,-61.0719
1.2708e+05,-61.0719
1.2734e+05,-59.0844
1.2760e+05,-57.0938
1.2786e+05,-55.5875
1.2812e+05,-54.0812
1.2838e+05,-57.5781
1.2864e+05,-61.0719
1.2890e+05,-58.0625
1.2916e+05,-55.0531
1.2942e+05,-58.0625
1.2968e+05,-61.0719
1.2994e+05,-61.0719
1.3020e+05,-61.0719
1.3046e+05,-61.0719
1.3072e+05,-61.0719
1.3098e+05,-58.0625
1.3124e+05,-55.0531
1.3150e+05,-58.0625
1.3176e+05,-61.0719
1.3202e+05,-57.0094
1.3228e+05,-52.9438
1.3254e+05,-57.0094
1.3280e+05,-61.0719
1.3306e+05,-61.0719
1.3332e+05,-61.0719
1.3359e+05,-58.0625
1.3385e+05,-55.0531
1.3411e+05,-56.075
1.3437e+05,-57.0938
1.3463e+05,-57.5781
1.3489e+05,-58.0625
1.3515e+05,-55.5031
1.3541e+05,-52.9438
1.3567e+05,-58.5125
1.3593e+05,-64.0812
1.3619e+05,-62.5781
1.3645e+05,-61.0719
1.3671e+05,-57.0094
1.3697e+05,-52.9438
1.3723e+05,-57.0094
1.3749e+05,-61.0719
1.3775e+05,-57.0094
1.3801e+05,-52.9438
1.3827e+05,-57.0094
1.3853e+05,-61.0719
1.3879e+05,-57.5781
1.3905e+05,-54.0812
1.3931e+05,-59.0812
1.3957e+05,-64.0812
1.3983e+05,-59.5688
1.4010e+05,-55.0531
1.4036e+05,-58.0625
1.4062e+05,-61.0719
1.4088e+05,-61.0719
1.4114e+05,-61.0719
1.4140e+05,-61.0719
1.4166e+05,-61.0719
1.4192e+05,-58.0625
1.4218e+05,-55.0531
1.4244e+05,-58.0625
1.4270e+05,-61.0719
1.4296e+05,-61.0719
1.4322e+05,-61.0719
1.4348e+05,-59.0844
1.4374e+05,-57.0938
1.4400e+05,-57.0938
1.4426e+05,-57.0938
1.4452e+05,-57.0938
1.4478e+05,-57.0938
1.4504e+05,-60.5875
1.4530e+05,-64.0812
1.4556e+05,-59.5688
1.4582e+05,-55.0531
1.4608e+05,-58.0625
1.4634e+05,-61.0719
1.4661e+05,-61.0719
1.4687e+05,-61.0719
1.4713e+05,-59.0844
1.4739e+05,-57.0938
1.4765e+05,-55.0187
1.4791e+05,-52.9438
1.4817e+05,-57.0094
1.4843e+05,-61.0719
1.4869e+05,-58.0625
1.4895e+05,-55.0531
1.4921e+05,-56.075
1.4947e+05,-57.0938
1.4973e+05,-57.0938
1.4999e+05,-57.0938
1.5025e+05,-56.075
1.5051e+05,-55.0531
1.5077e+05,-55.0531
1.5103e+05,-55.0531
1.5129e+05,-58.0625
1.5155e+05,-61.0719
1.5181e+05,-61.0719
1.5207e+05,-61.0719
1.5233e+05,-61.0719
1.5259e+05,-61.0719
1.5285e+05,-59.0844
1.5312e+05,-57.0938
1.5338e+05,-59.0844
1.5364e+05,-61.0719
1.5390e+05,-59.0844
1.5416e+05,-57.0938
1.5442e+05,-57.0938
1.5468e+05,-57.0938
1.5494e+05,-59.0844
1.5520e+05,-61.0719
1.5546e+05,-59.0844
1.5572e+05,-57.0938
1.5598e+05,-59.0844
1.5624e+05,-61.0719
1.5650e+05,-59.0844
1.5676e+05,-57.0938
1.5702e+05,-56.075
1.5728e+05,-55.0531
1.5754e+05,-58.0625
1.5780e+05,-61.0719
1.5806e+05,-58.0625
1.5832e+05,-55.0531
1.5858e+05,-59.5688
1.5884e+05,-64.0812
1.5910e+05,-62.5781
1.5936e+05,-61.0719
1.5963e+05,-58.0625
1.5989e+05,-55.0531
1.6015e+05,-55.0531
1.6041e+05,-55.0531
1.6067e+05,-56.075
1.6093e+05,-57.0938
1.6119e+05,-57.0938
1.6145e+05,-57.0938
1.6171e+05,-57.0938
1.6197e+05,-57.0938
1.6223e+05,-57.0938
1.6249e+05,-57.0938
1.6275e+05,-59.0844
1.6301e+05,-61.0719
1.6327e+05,-58.0625
1.6353e+05,-55.0531
1.6379e+05,-58.0625
1.6405e+05,-61.0719
1.6431e+05,-61.0719
1.6457e+05,-61.0719
1.6483e+05,-62.5781
1.6509e+05,-64.0812
1.6535e+05,-60.5875
1.6561e+05,-57.0938
1.6587e+05,-57.0938
1.6614e+05,-57.0938
1.6640e+05,-59.0844
1.6666e+05,-61.0719
1.6692e+05,-59.0844
1.6718e+05,-57.0938
1.6744e+05,-56.075
1.6770e+05,-55.0531
1.6796e+05,-56.075
1.6822e+05,-57.0938
1.6848e+05,-59.0844
1.6874e+05,-61.0719
1.6900e+05,-58.0625
1.6926e+05,-55.0531
1.6952e+05,-58.0625
1.6978e+05,-61.0719
1.7004e+05,-59.0844
1.7030e+05,-57.0938
1.7056e+05,-59.0844
1.7082e+05,-61.0719
1.7108e+05,-59.0844
1.7134e+05,-57.0938
1.7160e+05,-57.0938
1.7186e+05,-57.0938
1.7212e+05,-57.5781
1.7238e+05,-58.0625
1.7265e+05,-59.5688
1.7291e+05,-61.0719
1.7317e+05,-58.0625
1.7343e+05,-55.0531
1.7369e+05,-58.0625
1.7395e+05,-61.0719
1.7421e+05,-59.0844
1.7447e+05,-57.0938
1.7473e+05,-56.075
1.7499e+05,-55.0531
1.7525e+05,-58.0625
1.7551e+05,-61.0719
1.7577e+05,-59.0844
1.7603e+05,-57.0938
1.7629e+05,-59.0844
1.7655e+05,-61.0719
1.7681e+05,-59.0844
1.7707e+05,-57.0938
1.7733e+05,-57.0938
1.7759e+05,-57.0938
1.7785e+05,-57.0938
1.7811e+05,-57.0938
1.7837e+05,-60.5875
1.7863e+05,-64.0812
1.7889e+05,-60.5875
1.7916e+05,-57.0938
1.7942e+05,-59.0844
1.7968e+05,-61.0719
1.7994e+05,-58.0625
1.8020e+05,-55.0531
1.8046e+05,-59.5688
1.8072e+05,-64.0812
1.8098e+05,-60.5875
1.8124e+05,-57.0938
1.8150e+05,-57.5781
1.8176e+05,-58.0625
1.8202e+05,-58.0625
1.8228e+05,-58.0625
1.8254e+05,-57.5781
1.8280e+05,-57.0938
1.8306e+05,-59.0844
1.8332e+05,-61.0719
1.8358e+05,-58.0625
1.8384e+05,-55.0531
1.8410e+05,-56.075
1.8436e+05,-57.0938
1.8462e+05,-57.0938
1.8488e+05,-57.0938
1.8514e+05,-57.0938
1.8540e+05,-57.0938
1.8567e+05,-57.0938
1.8593e+05,-57.0938
1.8619e+05,-56.075
1.8645e+05,-55.0531
1.8671e+05,-56.075
1.8697e+05,-57.0938
1.8723e+05,-57.0938
1.8749e+05,-57.0938
1.8775e+05,-57.0938
1.8801e+05,-57.0938
1.8827e+05,-57.0938
1.8853e+05,-57.0938
1.8879e+05,-59.0844
1.8905e+05,-61.0719
1.8931e+05,-59.0844
1.8957e+05,-57.0938
1.8983e+05,-59.0844
1.9009e+05,-61.0719
1.9035e+05,-58.0625
1.9061e+05,-55.0531
1.9087e+05,-59.5688
1.9113e+05,-64.0812
1.9139e+05,-59.5688
1.9165e+05,-55.0531
1.9191e+05,-59.5688
1.9218e+05,-64.0812
1.9244e+05,-60.5875
1.9270e+05,-57.0938
1.9296e+05,-59.0844
1.9322e+05,-61.0719
1.9348e+05,-58.0625
1.9374e+05,-55.0531
1.9400e+05,-58.0625
1.9426e+05,-61.0719
1.9452e+05,-59.0844
1.9478e+05,-57.0938
1.9504e+05,-59.0844
1.9530e+05,-61.0719
1.9556e+05,-62.5781
1.9582e+05,-64.0812
1.9608e+05,-60.5875
1.9634e+05,-57.0938
1.9660e+05,-57.0938
1.9686e+05,-57.0938
1.9712e+05,-57.5781
1.9738e+05,-58.0625
1.9764e+05,-57.5781
1.9790e+05,-57.0938
1.9816e+05,-57.0938
1.9842e+05,-57.0938
1.9869e+05,-56.075
1.9895e+05,-55.0531
1.9921e+05,-56.5594
1.9947e+05,-58.0625
1.9973e+05,-57.5781
1.9999e+05,-57.0938
2.0025e+05,-57.0938
2.0051e+05,-57.0938
2.0077e+05,-59.0844
2.0103e+05,-61.0719
2.0129e+05,-59.0844
2.0155e+05,-57.0938
2.0181e+05,-59.0844
2.0207e+05,-61.0719
2.0233e+05,-61.0719
2.0259e+05,-61.0719
2.0285e+05,-59.0844
2.0311e+05,-57.0938
2.0337e+05,-56.075
2.0363e+05,-55.0531
2.0389e+05,-58.0625
2.0415e+05,-61.0719
2.0441e+05,-61.0719
2.0467e+05,-61.0719
2.0493e+05,-61.0719
2.0520e+05,-61.0719
2.0546e+05,-61.0719
2.0572e+05,-61.0719
2.0598e+05,-61.0719
2.0624e+05,-61.0719
2.0650e+05,-59.0844
2.0676e+05,-57.0938
2.0702e+05,-59.0844
2.0728e+05,-61.0719
2.0754e+05,-61.0719
2.0780e+05,-61.0719
2.0806e+05,-58.0625
2.0832e+05,-55.0531
2.0858e+05,-59.5688
2.0884e+05,-64.0812
2.0910e+05,-60.5875
2.0936e+05,-57.0938
2.0962e+05,-57.0938
2.0988e+05,-57.0938
2.1014e+05,-57.5781
2.1040e+05,-58.0625
2.1066e+05,-59.5688
2.1092e+05,-61.0719
2.1118e+05,-59.0844
2.1144e+05,-57.0938
2.1171e+05,-57.0938
2.1197e+05,-57.0938
2.1223e+05,-56.075
2.1249e+05,-55.0531
2.1275e+05,-58.0625
2.1301e+05,-61.0719
2.1327e+05,-57.5781
2.1353e+05,-54.0812
2.1379e+05,-55.5875
2.1405e+05,-57.0938
2.1431e+05,-57.0938
2.1457e+05,-57.0938
2.1483e+05,-56.075
2.1509e+05,-55.0531
2.1535e+05,-55.0531
2.1561e+05,-55.0531
2.1587e+05,-58.0625
2.1613e+05,-61.0719
2.1639e+05,-62.5781
2.1665e+05,-64.0812
2.1691e+05,-60.5875
2.1717e+05,-57.0938
2.1743e+05,-59.0844
2.1769e+05,-61.0719
2.1795e+05,-59.0844
2.1822e+05,-57.0938
2.1848e+05,-59.0844
2.1874e+05,-61.0719
2.1900e+05,-61.0719
2.1926e+05,-61.0719
2.1952e+05,-59.5688
2.1978e+05,-58.0625
2.2004e+05,-57.5781
2.2030e+05,-57.0938
2.2056e+05,-57.0938
2.2082e+05,-57.0938
2.2108e+05,-57.0938
2.2134e+05,-57.0938
2.2160e+05,-57.0938
2.2186e+05,-57.0938
2.2212e+05,-59.0844
2.2238e+05,-61.0719
2.2264e+05,-62.5781
2.2290e+05,-64.0812
2.2316e+05,-62.5781
2.2342e+05,-61.0719
2.2368e+05,-61.0719
2.2394e+05,-61.0719
2.2420e+05,-59.0844
2.2446e+05,-57.0938
2.2473e+05,-59.0844
2.2499e+05,-61.0719
2.2525e+05,-59.0844
2.2551e+05,-57.0938
2.2577e+05,-59.0844
2.2603e+05,-61.0719
2.2629e+05,-61.0719
2.2655e+05,-61.0719
2.2681e+05,-61.0719
2.2707e+05,-61.0719
2.2733e+05,-59.0844
2.2759e+05,-57.0938
2.2785e+05,-59.0844
2.2811e+05,-61.0719
2.2837e+05,-59.0844
2.2863e+05,-57.0938
2.2889e+05,-60.5875
2.2915e+05,-64.0812
2.2941e+05,-60.5875
2.2967e+05,-57.0938
2.2993e+05,-57.0938
2.3019e+05,-57.0938
2.3045e+05,-59.0844
2.3071e+05,-61.0719
2.3097e+05,-61.0719
2.3124e+05,-61.0719
2.3150e+05,-59.5688
2.3176e+05,-58.0625
2.3202e+05,-57.5781
2.3228e+05,-57.0938
2.3254e+05,-59.0844
2.3280e+05,-61.0719
2.3306e+05,-61.0719
2.3332e+05,-61.0719
2.3358e+05,-59.0844
2.3384e+05,-57.0938
2.3410e+05,-59.0844
2.3436e+05,-61.0719
2.3462e+05,-61.0719
2.3488e+05,-61.0719
2.3514e+05,-61.0719
2.3540e+05,-61.0719
2.3566e+05,-59.0844
2.3592e+05,-57.0938
2.3618e+05,-59.0844
2.3644e+05,-61.0719
2.3670e+05,-61.0719
2.3696e+05,-61.0719
2.3722e+05,-62.5781
2.3748e+05,-64.0812
2.3775e+05,-60.5875
2.3801e+05,-57.0938
2.3827e+05,-60.5875
2.3853e+05,-64.0812
2.3879e+05,-58.5125
2.3905e+05,-52.9438
2.3931e+05,-57.0094
2.3957e+05,-61.0719
2.3983e+05,-61.0719
2.4009e+05,-61.0719
2.4035e+05,-61.0719
2.4061e+05,-61.0719
2.4087e+05,-61.0719
2.4113e+05,-61.0719
2.4139e+05,-59.0844
2.4165e+05,-57.0938
2.4191e+05,-60.5875
2.4217e+05,-64.0812
2.4243e+05,-62.5781
2.4269e+05,-61.0719
2.4295e+05,-62.5781
2.4321e+05,-64.0812
2.4347e+05,-60.5875
2.4373e+05,-57.0938
2.4399e+05,-59.0844
2.4426e+05,-61.0719
2.4452e+05,-61.0719
2.4478e+05,-61.0719
2.4504e+05,-61.0719
2.4530e+05,-61.0719
2.4556e+05,-62.5781
2.4582e+05,-64.0812
2.4608e+05,-62.5781
2.4634e+05,-61.0719
2.4660e+05,-61.0719
2.4686e+05,-61.0719
2.4712e+05,-62.5781
2.4738e+05,-64.0812
2.4764e+05,-60.5875
2.4790e+05,-57.0938
2.4816e+05,-59.0844
2.4842e+05,-61.0719
2.4868e+05,-61.0719
2.4894e+05,-61.0719
2.4920e+05,-58.0625
2.4946e+05,-55.0531
2.4972e+05,-59.5688
2.4998e+05,-64.0812
2.5024e+05,-62.5781
2.5050e+05,-61.0719
2.5077e+05,-59.5688
2.5103e+05,-58.0625
2.5129e+05,-59.5688
2.5155e+05,-61.0719
2.5181e+05,-61.0719
2.5207e+05,-61.0719
2.5233e+05,-61.0719
2.5259e+05,-61.0719
2.5285e+05,-58.0625
2.5311e+05,-55.0531
2.5337e+05,-56.5594
2.5363e+05,-58.0625
2.5389e+05,-61.0719
2.5415e+05,-64.0812
2.5441e+05,-62.5781
2.5467e+05,-61.0719
2.5493e+05,-61.0719
2.5519e+05,-61.0719
2.5545e+05,-62.5781
2.5571e+05,-64.0812
2.5597e+05,-62.5781
2.5623e+05,-61.0719
2.5649e+05,-59.0844
2.5675e+05,-57.0938
2.5701e+05,-59.0844
2.5728e+05,-61.0719
2.5754e+05,-62.5781
2.5780e+05,-64.0812
