junior/spring/ece242/labs/lab2/TIMEPT3.CSV

Model,MSO2024B
Firmware Version,1.56

Point Format,Y,
Horizontal Units,S,
Horizontal Scale,0.0002,
Sample Interval,1.6e-08,
Filter Frequency,2e+08,
Record Length,125000,
Gating,0.0% to 100.0%,
Probe Attenuation,10,
Vertical Units,V,
Vertical Offset,0,
Vertical Scale,1,
Label,,
TIME,CH1,CH1 Peak Detect
-1.0000e-03,-0.04,0
-9.9998e-04,0,-0.04
-9.9997e-04,-0.04,0.04
-9.9995e-04,0,-0.04
-9.9994e-04,-0.04,0.04
-9.9992e-04,-0.04,-0.04
-9.9990e-04,-0.04,0
-9.9989e-04,0,-0.04
-9.9987e-04,0,0
-9.9986e-04,0,-0.04
-9.9984e-04,0,0
-9.9982e-04,0,-0.04
-9.9981e-04,-0.04,0.04
-9.9979e-04,0,-0.04
-9.9978e-04,0,0.04
-9.9976e-04,0,0
-9.9974e-04,0,0.04
-9.9973e-04,0,-0.04
-9.9971e-04,0,0.04
-9.9970e-04,0,0
-9.9968e-04,0,0.04
-9.9966e-04,0,0
-9.9965e-04,0,0.04
-9.9963e-04,0,0
-9.9962e-04,0,0.04
-9.9960e-04,0.04,0
-9.9958e-04,0,0.04
-9.9957e-04,0,0
-9.9955e-04,0,0.04
-9.9954e-04,0.04,0
-9.9952e-04,0,0.04
-9.9950e-04,0,0
-9.9949e-04,0,0.04
-9.9947e-04,0.04,0
-9.9946e-04,0,0.04
-9.9944e-04,0,0
-9.9942e-04,0,0.04
-9.9941e-04,0,0
-9.9939e-04,0.04,0.04
-9.9938e-04,0.04,0
-9.9936e-04,0.04,0.08
-9.9934e-04,0,0
-9.9933e-04,0.04,0.04
-9.9931e-04,0,0
-9.9930e-04,0.04,0.04
-9.9928e-04,0,0
-9.9926e-04,0,0.08
-9.9925e-04,0.08,0
-9.9923e-04,0,0.04
-9.9922e-04,0.04,0
-9.9920e-04,0.04,0.08
-9.9918e-04,0.04,0
-9.9917e-04,0,0.04
-9.9915e-04,0.04,0
-9.9914e-04,0.04,0.08
-9.9912e-04,0.04,0
-9.9910e-04,0.08,0.08
-9.9909e-04,0.04,0.04
-9.9907e-04,0.04,0.08
-9.9906e-04,0.04,0
-9.9904e-04,0.04,0.08
-9.9902e-04,0.04,0.04
-9.9901e-04,0.04,0.08
-9.9899e-04,0.04,0.04
-9.9898e-04,0.04,0.08
-9.9896e-04,0.04,0.04
-9.9894e-04,0.04,0.08
-9.9893e-04,0.04,0.04
-9.9891e-04,0.04,0.08
-9.9890e-04,0.04,0.04
-9.9888e-04,0.08,0.08
-9.9886e-04,0.08,0.04
-9.9885e-04,0.08,0.08
-9.9883e-04,0.04,0.04
-9.9882e-04,0.04,0.08
-9.9880e-04,0.08,0.04
-9.9878e-04,0.04,0.08
-9.9877e-04,0.08,0.04
-9.9875e-04,0.04,0.08
-9.9874e-04,0.08,0.04
-9.9872e-04,0.04,0.08
-9.9870e-04,0.08,0.04
-9.9869e-04,0.08,0.12
-9.9867e-04,0.08,0.04
-9.9866e-04,0.08,0.08
-9.9864e-04,0.08,0.04
-9.9862e-04,0.08,0.08
-9.9861e-04,0.08,0.04
-9.9859e-04,0.08,0.08
-9.9858e-04,0.08,0.04
-9.9856e-04,0.08,0.12
-9.9854e-04,0.08,0.04
-9.9853e-04,0.04,0.08
-9.9851e-04,0.08,0.04
-9.9850e-04,0.08,0.12
-9.9848e-04,0.08,0.04
-9.9846e-04,0.08,0.12
-9.9845e-04,0.08,0.04
-9.9843e-04,0.12,0.08
-9.9842e-04,0.08,0.08
-9.9840e-04,0.08,0.12
-9.9838e-04,0.08,0.08
-9.9837e-04,0.08,0.12
-9.9835e-04,0.08,0.08
-9.9834e-04,0.08,0.12
-9.9832e-04,0.08,0.08
-9.9830e-04,0.04,0.12
-9.9829e-04,0.08,0.04
-9.9827e-04,0.08,0.12
-9.9826e-04,0.08,0.08
-9.9824e-04,0.08,0.12
-9.9822e-04,0.08,0.08
-9.9821e-04,0.08,0.12
-9.9819e-04,0.12,0.08
-9.9818e-04,0.08,0.12
-9.9816e-04,0.08,0.08
-9.9814e-04,0.12,0.12
-9.9813e-04,0.12,0.08
-9.9811e-04,0.08,0.12
-9.9810e-04,0.12,0.08
-9.9808e-04,0.12,0.16
-9.9806e-04,0.08,0.08
-9.9805e-04,0.08,0.12
-9.9803e-04,0.08,0.08
-9.9802e-04,0.12,0.12
-9.9800e-04,0.08,0.08
-9.9798e-04,0.12,0.16
-9.9797e-04,0.08,0.08
-9.9795e-04,0.12,0.12
-9.9794e-04,0.08,0.08
-9.9792e-04,0.12,0.12
-9.9790e-04,0.12,0.08
-9.9789e-04,0.12,0.12
-9.9787e-04,0.12,0.08
-9.9786e-04,0.08,0.16
-9.9784e-04,0.12,0.08
-9.9782e-04,0.12,0.16
-9.9781e-04,0.16,0.08
-9.9779e-04,0.12,0.12
-9.9778e-04,0.12,0.08
-9.9776e-04,0.08,0.16
-9.9774e-04,0.16,0.08
-9.9773e-04,0.12,0.16
-9.9771e-04,0.12,0.08
-9.9770e-04,0.12,0.16
-9.9768e-04,0.12,0.08
-9.9766e-04,0.12,0.16
-9.9765e-04,0.16,0.12
-9.9763e-04,0.16,0.16
-9.9762e-04,0.12,0.12
-9.9760e-04,0.12,0.16
-9.9758e-04,0.12,0.12
-9.9757e-04,0.12,0.16
-9.9755e-04,0.16,0.12
-9.9754e-04,0.16,0.16
-9.9752e-04,0.12,0.12
-9.9750e-04,0.16,0.16
-9.9749e-04,0.12,0.12
-9.9747e-04,0.16,0.16
-9.9746e-04,0.16,0.12
-9.9744e-04,0.16,0.16
-9.9742e-04,0.12,0.12
-9.9741e-04,0.16,0.16
-9.9739e-04,0.16,0.12
-9.9738e-04,0.12,0.16
-9.9736e-04,0.16,0.12
-9.9734e-04,0.12,0.2
-9.9733e-04,0.16,0.12
-9.9731e-04,0.12,0.16
-9.9730e-04,0.16,0.12
-9.9728e-04,0.16,0.2
-9.9726e-04,0.16,0.12
-9.9725e-04,0.16,0.16
-9.9723e-04,0.12,0.12
-9.9722e-04,0.16,0.16
-9.9720e-04,0.16,0.12
-9.9718e-04,0.16,0.2
-9.9717e-04,0.16,0.12
-9.9715e-04,0.16,0.2
-9.9714e-04,0.16,0.12
-9.9712e-04,0.16,0.2
-9.9710e-04,0.2,0.12
-9.9709e-04,0.16,0.2
-9.9707e-04,0.16,0.12
-9.9706e-04,0.16,0.2
-9.9704e-04,0.16,0.16
-9.9702e-04,0.16,0.2
-9.9701e-04,0.2,0.16
-9.9699e-04,0.16,0.2
-9.9698e-04,0.2,0.16
-9.9696e-04,0.16,0.2
-9.9694e-04,0.16,0.16
-9.9693e-04,0.2,0.2
-9.9691e-04,0.16,0.16
-9.9690e-04,0.16,0.2
-9.9688e-04,0.16,0.16
-9.9686e-04,0.2,0.2
-9.9685e-04,0.2,0.16
-9.9683e-04,0.16,0.2
-9.9682e-04,0.2,0.16
-9.9680e-04,0.2,0.2
-9.9678e-04,0.16,0.16
-9.9677e-04,0.2,0.2
-9.9675e-04,0.16,0.16
-9.9674e-04,0.2,0.24
-9.9672e-04,0.2,0.16
-9.9670e-04,0.16,0.24
-9.9669e-04,0.2,0.16
-9.9667e-04,0.2,0.24
-9.9666e-04,0.2,0.16
-9.9664e-04,0.2,0.2
-9.9662e-04,0.2,0.2
-9.9661e-04,0.2,0.2
-9.9659e-04,0.2,0.16
-9.9658e-04,0.2,0.24
-9.9656e-04,0.2,0.2
-9.9654e-04,0.2,0.2
-9.9653e-04,0.2,0.16
-9.9651e-04,0.24,0.24
-9.9650e-04,0.16,0.16
-9.9648e-04,0.2,0.24
-9.9646e-04,0.2,0.16
-9.9645e-04,0.2,0.24
-9.9643e-04,0.24,0.16
-9.9642e-04,0.2,0.24
-9.9640e-04,0.24,0.2
-9.9638e-04,0.2,0.24
-9.9637e-04,0.24,0.2
-9.9635e-04,0.2,0.24
-9.9634e-04,0.2,0.2
-9.9632e-04,0.2,0.24
-9.9630e-04,0.24,0.2
-9.9629e-04,0.2,0.24
-9.9627e-04,0.2,0.2
-9.9626e-04,0.2,0.24
-9.9624e-04,0.2,0.2
-9.9622e-04,0.24,0.24
-9.9621e-04,0.24,0.2
-9.9619e-04,0.24,0.24
-9.9618e-04,0.24,0.2
-9.9616e-04,0.24,0.24
-9.9614e-04,0.24,0.2
-9.9613e-04,0.2,0.24
-9.9611e-04,0.24,0.2
-9.9610e-04,0.24,0.24
-9.9608e-04,0.24,0.2
-9.9606e-04,0.24,0.24
-9.9605e-04,0.24,0.2
-9.9603e-04,0.24,0.24
-9.9602e-04,0.24,0.2
-9.9600e-04,0.24,0.24
-9.9598e-04,0.24,0.2
-9.9597e-04,0.2,0.28
-9.9595e-04,0.28,0.2
-9.9594e-04,0.2,0.28
-9.9592e-04,0.24,0.2
-9.9590e-04,0.24,0.28
-9.9589e-04,0.24,0.2
-9.9587e-04,0.24,0.28
-9.9586e-04,0.24,0.24
-9.9584e-04,0.28,0.24
-9.9582e-04,0.24,0.24
-9.9581e-04,0.28,0.28
-9.9579e-04,0.24,0.2
-9.9578e-04,0.24,0.28
-9.9576e-04,0.28,0.2
-9.9574e-04,0.24,0.32
-9.9573e-04,0.24,0.2
-9.9571e-04,0.28,0.28
-9.9570e-04,0.28,0.24
-9.9568e-04,0.24,0.28
-9.9566e-04,0.28,0.24
-9.9565e-04,0.24,0.28
-9.9563e-04,0.28,0.24
-9.9562e-04,0.24,0.28
-9.9560e-04,0.24,0.24
-9.9558e-04,0.24,0.28
-9.9557e-04,0.24,0.24
-9.9555e-04,0.24,0.32
-9.9554e-04,0.24,0.24
-9.9552e-04,0.28,0.28
-9.9550e-04,0.24,0.24
-9.9549e-04,0.28,0.28
-9.9547e-04,0.28,0.24
-9.9546e-04,0.24,0.32
-9.9544e-04,0.28,0.24
-9.9542e-04,0.28,0.32
-9.9541e-04,0.24,0.24
-9.9539e-04,0.28,0.28
-9.9538e-04,0.28,0.24
-9.9536e-04,0.28,0.28
-9.9534e-04,0.28,0.24
-9.9533e-04,0.28,0.28
-9.9531e-04,0.28,0.24
-9.9530e-04,0.32,0.32
-9.9528e-04,0.28,0.24
-9.9526e-04,0.28,0.32
-9.9525e-04,0.28,0.28
-9.9523e-04,0.24,0.32
-9.9522e-04,0.32,0.24
-9.9520e-04,0.28,0.32
-9.9518e-04,0.28,0.24
-9.9517e-04,0.28,0.32
-9.9515e-04,0.28,0.24
-9.9514e-04,0.28,0.32
-9.9512e-04,0.28,0.24
-9.9510e-04,0.28,0.32
-9.9509e-04,0.24,0.28
-9.9507e-04,0.28,0.32
-9.9506e-04,0.24,0.24
-9.9504e-04,0.28,0.32
-9.9502e-04,0.32,0.24
-9.9501e-04,0.28,0.32
-9.9499e-04,0.28,0.24
-9.9498e-04,0.28,0.32
-9.9496e-04,0.32,0.28
-9.9494e-04,0.32,0.32
-9.9493e-04,0.28,0.28
-9.9491e-04,0.28,0.32
-9.9490e-04,0.32,0.28
-9.9488e-04,0.32,0.32
-9.9486e-04,0.28,0.28
-9.9485e-04,0.32,0.32
-9.9483e-04,0.32,0.28
-9.9482e-04,0.28,0.32
-9.9480e-04,0.32,0.28
-9.9478e-04,0.32,0.32
-9.9477e-04,0.32,0.28
-9.9475e-04,0.28,0.32
-9.9474e-04,0.32,0.28
-9.9472e-04,0.32,0.32
-9.9470e-04,0.32,0.28
-9.9469e-04,0.32,0.36
-9.9467e-04,0.32,0.28
-9.9466e-04,0.32,0.36
-9.9464e-04,0.32,0.32
-9.9462e-04,0.32,0.32
-9.9461e-04,0.32,0.28
-9.9459e-04,0.32,0.36
-9.9458e-04,0.32,0.32
-9.9456e-04,0.32,0.36
-9.9454e-04,0.36,0.32
-9.9453e-04,0.32,0.36
-9.9451e-04,0.32,0.28
-9.9450e-04,0.32,0.36
-9.9448e-04,0.32,0.32
-9.9446e-04,0.32,0.36
-9.9445e-04,0.32,0.32
-9.9443e-04,0.36,0.36
-9.9442e-04,0.32,0.28
-9.9440e-04,0.36,0.36
-9.9438e-04,0.32,0.32
-9.9437e-04,0.36,0.36
-9.9435e-04,0.32,0.32
-9.9434e-04,0.32,0.36
-9.9432e-04,0.32,0.32
-9.9430e-04,0.36,0.36
-9.9429e-04,0.32,0.32
-9.9427e-04,0.32,0.36
-9.9426e-04,0.36,0.32
-9.9424e-04,0.32,0.36
-9.9422e-04,0.36,0.32
-9.9421e-04,0.32,0.36
-9.9419e-04,0.36,0.32
-9.9418e-04,0.32,0.36
-9.9416e-04,0.36,0.32
-9.9414e-04,0.32,0.36
-9.9413e-04,0.36,0.32
-9.9411e-04,0.36,0.36
-9.9410e-04,0.32,0.32
-9.9408e-04,0.36,0.36
-9.9406e-04,0.36,0.32
-9.9405e-04,0.32,0.36
-9.9403e-04,0.36,0.32
-9.9402e-04,0.32,0.4
-9.9400e-04,0.36,0.32
-9.9398e-04,0.36,0.36
-9.9397e-04,0.32,0.32
-9.9395e-04,0.36,0.36
-9.9394e-04,0.36,0.32
-9.9392e-04,0.36,0.4
-9.9390e-04,0.36,0.32
-9.9389e-04,0.36,0.36
-9.9387e-04,0.36,0.36
-9.9386e-04,0.36,0.36
-9.9384e-04,0.32,0.36
-9.9382e-04,0.36,0.4
-9.9381e-04,0.4,0.32
-9.9379e-04,0.36,0.4
-9.9378e-04,0.36,0.36
-9.9376e-04,0.36,0.4
-9.9374e-04,0.36,0.36
-9.9373e-04,0.4,0.4
-9.9371e-04,0.36,0.36
-9.9370e-04,0.4,0.4
-9.9368e-04,0.36,0.36
-9.9366e-04,0.4,0.4
-9.9365e-04,0.36,0.36
-9.9363e-04,0.4,0.4
-9.9362e-04,0.36,0.36
-9.9360e-04,0.36,0.4
-9.9358e-04,0.36,0.36
-9.9357e-04,0.36,0.4
-9.9355e-04,0.4,0.36
-9.9354e-04,0.4,0.4
-9.9352e-04,0.4,0.36
-9.9350e-04,0.4,0.4
-9.9349e-04,0.4,0.36
-9.9347e-04,0.4,0.4
-9.9346e-04,0.36,0.36
-9.9344e-04,0.4,0.4
-9.9342e-04,0.36,0.36
-9.9341e-04,0.4,0.4
-9.9339e-04,0.4,0.36
-9.9338e-04,0.36,0.4
-9.9336e-04,0.4,0.36
-9.9334e-04,0.36,0.44
-9.9333e-04,0.4,0.36
-9.9331e-04,0.4,0.44
-9.9330e-04,0.4,0.36
-9.9328e-04,0.4,0.4
-9.9326e-04,0.4,0.36
-9.9325e-04,0.4,0.44
-9.9323e-04,0.4,0.4
-9.9322e-04,0.4,0.44
-9.9320e-04,0.4,0.36
-9.9318e-04,0.44,0.4
-9.9317e-04,0.4,0.36
-9.9315e-04,0.4,0.44
-9.9314e-04,0.4,0.36
-9.9312e-04,0.4,0.44
-9.9310e-04,0.4,0.36
-9.9309e-04,0.4,0.44
-9.9307e-04,0.4,0.36
-9.9306e-04,0.44,0.4
-9.9304e-04,0.4,0.4
-9.9302e-04,0.4,0.44
-9.9301e-04,0.4,0.4
-9.9299e-04,0.4,0.44
-9.9298e-04,0.4,0.4
-9.9296e-04,0.44,0.44
-9.9294e-04,0.4,0.4
-9.9293e-04,0.4,0.44
-9.9291e-04,0.44,0.4
-9.9290e-04,0.44,0.44
-9.9288e-04,0.44,0.4
-9.9286e-04,0.4,0.44
-9.9285e-04,0.4,0.4
-9.9283e-04,0.4,0.44
-9.9282e-04,0.44,0.4
-9.9280e-04,0.44,0.44
-9.9278e-04,0.44,0.4
-9.9277e-04,0.44,0.44
-9.9275e-04,0.44,0.4
-9.9274e-04,0.44,0.44
-9.9272e-04,0.44,0.4
-9.9270e-04,0.44,0.44
-9.9269e-04,0.44,0.4
-9.9267e-04,0.44,0.44
-9.9266e-04,0.44,0.4
-9.9264e-04,0.44,0.44
-9.9262e-04,0.44,0.44
-9.9261e-04,0.44,0.44
-9.9259e-04,0.44,0.4
-9.9258e-04,0.44,0.44
-9.9256e-04,0.44,0.4
-9.9254e-04,0.44,0.48
-9.9253e-04,0.44,0.4
-9.9251e-04,0.44,0.48
-9.9250e-04,0.44,0.4
-9.9248e-04,0.44,0.48
-9.9246e-04,0.44,0.4
-9.9245e-04,0.48,0.48
-9.9243e-04,0.44,0.4
-9.9242e-04,0.4,0.48
-9.9240e-04,0.48,0.4
-9.9238e-04,0.44,0.48
-9.9237e-04,0.48,0.4
-9.9235e-04,0.44,0.48
-9.9234e-04,0.48,0.44
-9.9232e-04,0.48,0.48
-9.9230e-04,0.48,0.44
-9.9229e-04,0.44,0.48
-9.9227e-04,0.44,0.4
-9.9226e-04,0.48,0.48
-9.9224e-04,0.48,0.44
-9.9222e-04,0.48,0.48
-9.9221e-04,0.44,0.44
-9.9219e-04,0.44,0.48
-9.9218e-04,0.48,0.44
-9.9216e-04,0.48,0.48
-9.9214e-04,0.48,0.44
-9.9213e-04,0.44,0.48
-9.9211e-04,0.48,0.44
-9.9210e-04,0.48,0.48
-9.9208e-04,0.48,0.44
-9.9206e-04,0.44,0.48
-9.9205e-04,0.48,0.44
-9.9203e-04,0.48,0.48
-9.9202e-04,0.48,0.44
-9.9200e-04,0.44,0.48
-9.9198e-04,0.48,0.44
-9.9197e-04,0.48,0.48
-9.9195e-04,0.48,0.44
-9.9194e-04,0.44,0.48
-9.9192e-04,0.48,0.44
-9.9190e-04,0.48,0.52
-9.9189e-04,0.52,0.44
-9.9187e-04,0.48,0.48
-9.9186e-04,0.48,0.44
-9.9184e-04,0.48,0.52
-9.9182e-04,0.48,0.44
-9.9181e-04,0.52,0.52
-9.9179e-04,0.48,0.44
-9.9178e-04,0.48,0.52
-9.9176e-04,0.44,0.44
-9.9174e-04,0.52,0.52
-9.9173e-04,0.48,0.44
-9.9171e-04,0.48,0.52
-9.9170e-04,0.48,0.44
-9.9168e-04,0.48,0.52
-9.9166e-04,0.52,0.48
-9.9165e-04,0.48,0.52
-9.9163e-04,0.52,0.44
-9.9162e-04,0.48,0.52
-9.9160e-04,0.52,0.48
-9.9158e-04,0.52,0.52
-9.9157e-04,0.48,0.48
-9.9155e-04,0.52,0.52
-9.9154e-04,0.48,0.48
-9.9152e-04,0.52,0.52
-9.9150e-04,0.48,0.44
-9.9149e-04,0.52,0.52
-9.9147e-04,0.52,0.48
-9.9146e-04,0.48,0.52
-9.9144e-04,0.52,0.48
-9.9142e-04,0.52,0.52
-9.9141e-04,0.52,0.48
-9.9139e-04,0.52,0.52
-9.9138e-04,0.52,0.48
-9.9136e-04,0.52,0.52
-9.9134e-04,0.52,0.48
-9.9133e-04,0.52,0.52
-9.9131e-04,0.48,0.48
-9.9130e-04,0.52,0.52
-9.9128e-04,0.52,0.48
-9.9126e-04,0.52,0.52
-9.9125e-04,0.52,0.48
-9.9123e-04,0.52,0.52
-9.9122e-04,0.52,0.48
-9.9120e-04,0.52,0.52
-9.9118e-04,0.52,0.48
-9.9117e-04,0.52,0.52
-9.9115e-04,0.52,0.48
-9.9114e-04,0.52,0.56
-9.9112e-04,0.52,0.48
-9.9110e-04,0.52,0.56
-9.9109e-04,0.52,0.48
-9.9107e-04,0.52,0.52
-9.9106e-04,0.52,0.48
-9.9104e-04,0.52,0.52
-9.9102e-04,0.52,0.48
-9.9101e-04,0.52,0.56
-9.9099e-04,0.56,0.52
-9.9098e-04,0.52,0.56
-9.9096e-04,0.52,0.48
-9.9094e-04,0.52,0.56
-9.9093e-04,0.52,0.52
-9.9091e-04,0.56,0.56
-9.9090e-04,0.52,0.48
-9.9088e-04,0.52,0.56
-9.9086e-04,0.56,0.52
-9.9085e-04,0.56,0.56
-9.9083e-04,0.52,0.52
-9.9082e-04,0.56,0.56
-9.9080e-04,0.52,0.52
-9.9078e-04,0.52,0.56
-9.9077e-04,0.52,0.52
-9.9075e-04,0.52,0.56
-9.9074e-04,0.56,0.52
-9.9072e-04,0.52,0.56
-9.9070e-04,0.6,0.52
-9.9069e-04,0.56,0.56
-9.9067e-04,0.56,0.52
-9.9066e-04,0.52,0.6
-9.9064e-04,0.56,0.52
-9.9062e-04,0.56,0.56
-9.9061e-04,0.56,0.52
-9.9059e-04,0.56,0.56
-9.9058e-04,0.56,0.52
-9.9056e-04,0.56,0.56
-9.9054e-04,0.56,0.52
-9.9053e-04,0.56,0.56
-9.9051e-04,0.56,0.52
-9.9050e-04,0.52,0.6
-9.9048e-04,0.56,0.52
-9.9046e-04,0.56,0.56
-9.9045e-04,0.56,0.52
-9.9043e-04,0.56,0.56
-9.9042e-04,0.56,0.56
-9.9040e-04,0.6,0.6
-9.9038e-04,0.56,0.52
-9.9037e-04,0.56,0.6
-9.9035e-04,0.56,0.52
-9.9034e-04,0.56,0.56
-9.9032e-04,0.6,0.52
-9.9030e-04,0.56,0.6
-9.9029e-04,0.56,0.52
-9.9027e-04,0.56,0.6
-9.9026e-04,0.56,0.52
-9.9024e-04,0.52,0.6
-9.9022e-04,0.56,0.52
-9.9021e-04,0.56,0.6
-9.9019e-04,0.56,0.52
-9.9018e-04,0.56,0.6
-9.9016e-04,0.6,0.56
-9.9014e-04,0.6,0.6
-9.9013e-04,0.56,0.56
-9.9011e-04,0.56,0.6
-9.9010e-04,0.56,0.56
-9.9008e-04,0.56,0.6
-9.9006e-04,0.6,0.52
-9.9005e-04,0.56,0.6
-9.9003e-04,0.56,0.56
-9.9002e-04,0.6,0.6
-9.9000e-04,0.56,0.56
-9.8998e-04,0.56,0.6
-9.8997e-04,0.56,0.56
-9.8995e-04,0.6,0.6
-9.8994e-04,0.56,0.56
-9.8992e-04,0.6,0.6
-9.8990e-04,0.56,0.56
-9.8989e-04,0.56,0.6
-9.8987e-04,0.56,0.56
-9.8986e-04,0.6,0.6
-9.8984e-04,0.6,0.56
-9.8982e-04,0.6,0.6
-9.8981e-04,0.6,0.56
-9.8979e-04,0.6,0.6
-9.8978e-04,0.6,0.56
-9.8976e-04,0.6,0.6
-9.8974e-04,0.6,0.56
-9.8973e-04,0.56,0.64
-9.8971e-04,0.6,0.56
-9.8970e-04,0.6,0.6
-9.8968e-04,0.6,0.56
-9.8966e-04,0.6,0.6
-9.8965e-04,0.6,0.56
-9.8963e-04,0.6,0.64
-9.8962e-04,0.6,0.6
-9.8960e-04,0.6,0.64
-9.8958e-04,0.6,0.56
-9.8957e-04,0.6,0.64
-9.8955e-04,0.6,0.56
-9.8954e-04,0.6,0.64
-9.8952e-04,0.64,0.56
-9.8950e-04,0.6,0.64
-9.8949e-04,0.64,0.56
-9.8947e-04,0.6,0.64
-9.8946e-04,0.6,0.6
-9.8944e-04,0.6,0.64
-9.8942e-04,0.64,0.6
-9.8941e-04,0.6,0.64
-9.8939e-04,0.64,0.56
-9.8938e-04,0.6,0.64
-9.8936e-04,0.64,0.56
-9.8934e-04,0.6,0.64
-9.8933e-04,0.64,0.6
-9.8931e-04,0.6,0.64
-9.8930e-04,0.6,0.6
-9.8928e-04,0.64,0.64
-9.8926e-04,0.64,0.6
-9.8925e-04,0.6,0.64
-9.8923e-04,0.6,0.6
-9.8922e-04,0.64,0.64
-9.8920e-04,0.64,0.6
-9.8918e-04,0.6,0.68
-9.8917e-04,0.64,0.6
-9.8915e-04,0.6,0.64
-9.8914e-04,0.6,0.6
-9.8912e-04,0.6,0.64
-9.8910e-04,0.64,0.6
-9.8909e-04,0.64,0.64
-9.8907e-04,0.6,0.6
-9.8906e-04,0.64,0.64
-9.8904e-04,0.6,0.6
-9.8902e-04,0.6,0.64
-9.8901e-04,0.64,0.6
-9.8899e-04,0.64,0.64
-9.8898e-04,0.64,0.6
-9.8896e-04,0.64,0.68
-9.8894e-04,0.6,0.6
-9.8893e-04,0.64,0.64
-9.8891e-04,0.64,0.6
-9.8890e-04,0.64,0.68
-9.8888e-04,0.64,0.6
-9.8886e-04,0.64,0.64
-9.8885e-04,0.64,0.6
-9.8883e-04,0.64,0.68
-9.8882e-04,0.64,0.6
-9.8880e-04,0.64,0.68
-9.8878e-04,0.64,0.6
-9.8877e-04,0.64,0.68
-9.8875e-04,0.68,0.6
-9.8874e-04,0.64,0.68
-9.8872e-04,0.64,0.6
-9.8870e-04,0.64,0.68
-9.8869e-04,0.64,0.6
-9.8867e-04,0.64,0.68
-9.8866e-04,0.64,0.6
-9.8864e-04,0.68,0.68
-9.8862e-04,0.64,0.6
-9.8861e-04,0.64,0.68
-9.8859e-04,0.64,0.64
-9.8858e-04,0.68,0.68
-9.8856e-04,0.64,0.64
-9.8854e-04,0.64,0.68
-9.8853e-04,0.68,0.64
-9.8851e-04,0.68,0.68
-9.8850e-04,0.68,0.64
-9.8848e-04,0.64,0.68
-9.8846e-04,0.68,0.6
-9.8845e-04,0.64,0.68
-9.8843e-04,0.64,0.6
-9.8842e-04,0.68,0.68
-9.8840e-04,0.64,0.64
-9.8838e-04,0.64,0.68
-9.8837e-04,0.68,0.64
-9.8835e-04,0.64,0.68
-9.8834e-04,0.68,0.64
-9.8832e-04,0.64,0.68
-9.8830e-04,0.68,0.64
-9.8829e-04,0.68,0.68
-9.8827e-04,0.64,0.64
-9.8826e-04,0.68,0.68
-9.8824e-04,0.68,0.64
-9.8822e-04,0.68,0.68
-9.8821e-04,0.64,0.64
-9.8819e-04,0.68,0.68
-9.8818e-04,0.68,0.64
-9.8816e-04,0.68,0.72
-9.8814e-04,0.64,0.64
-9.8813e-04,0.68,0.72
-9.8811e-04,0.68,0.64
-9.8810e-04,0.68,0.72
-9.8808e-04,0.68,0.64
-9.8806e-04,0.72,0.72
-9.8805e-04,0.68,0.64
-9.8803e-04,0.68,0.72
-9.8802e-04,0.72,0.64
-9.8800e-04,0.68,0.72
-9.8798e-04,0.68,0.64
-9.8797e-04,0.68,0.72
-9.8795e-04,0.68,0.64
-9.8794e-04,0.68,0.68
-9.8792e-04,0.68,0.64
-9.8790e-04,0.68,0.72
-9.8789e-04,0.68,0.64
-9.8787e-04,0.68,0.72
-9.8786e-04,0.68,0.68
-9.8784e-04,0.72,0.72
-9.8782e-04,0.68,0.64
-9.8781e-04,0.68,0.72
-9.8779e-04,0.68,0.64
-9.8778e-04,0.68,0.72
-9.8776e-04,0.72,0.64
-9.8774e-04,0.68,0.72
-9.8773e-04,0.68,0.68
-9.8771e-04,0.72,0.72
-9.8770e-04,0.72,0.64
-9.8768e-04,0.68,0.72
-9.8766e-04,0.68,0.68
-9.8765e-04,0.68,0.76
-9.8763e-04,0.72,0.68
-9.8762e-04,0.72,0.72
-9.8760e-04,0.72,0.68
-9.8758e-04,0.72,0.72
-9.8757e-04,0.72,0.64
-9.8755e-04,0.72,0.72
-9.8754e-04,0.72,0.68
-9.8752e-04,0.72,0.72
-9.8750e-04,0.68,0.68
-9.8749e-04,0.72,0.72
-9.8747e-04,0.72,0.68
-9.8746e-04,0.76,0.72
-9.8744e-04,0.72,0.68
-9.8742e-04,0.72,0.76
-9.8741e-04,0.72,0.68
-9.8739e-04,0.68,0.76
-9.8738e-04,0.68,0.68
-9.8736e-04,0.68,0.72
-9.8734e-04,0.72,0.68
-9.8733e-04,0.68,0.76
-9.8731e-04,0.72,0.68
-9.8730e-04,0.72,0.72
-9.8728e-04,0.72,0.68
-9.8726e-04,0.72,0.72
-9.8725e-04,0.72,0.68
-9.8723e-04,0.72,0.72
-9.8722e-04,0.72,0.68
-9.8720e-04,0.72,0.72
-9.8718e-04,0.72,0.68
-9.8717e-04,0.72,0.76
-9.8715e-04,0.72,0.68
-9.8714e-04,0.72,0.72
-9.8712e-04,0.76,0.68
-9.8710e-04,0.72,0.72
-9.8709e-04,0.72,0.68
-9.8707e-04,0.72,0.76
-9.8706e-04,0.72,0.68
-9.8704e-04,0.72,0.76
-9.8702e-04,0.72,0.72
-9.8701e-04,0.72,0.76
-9.8699e-04,0.72,0.68
-9.8698e-04,0.76,0.76
-9.8696e-04,0.76,0.72
-9.8694e-04,0.72,0.76
-9.8693e-04,0.72,0.72
-9.8691e-04,0.72,0.76
-9.8690e-04,0.76,0.68
-9.8688e-04,0.76,0.76
-9.8686e-04,0.76,0.72
-9.8685e-04,0.72,0.76
-9.8683e-04,0.72,0.72
-9.8682e-04,0.72,0.76
-9.8680e-04,0.76,0.72
-9.8678e-04,0.76,0.76
-9.8677e-04,0.72,0.72
-9.8675e-04,0.76,0.76
-9.8674e-04,0.72,0.72
-9.8672e-04,0.76,0.76
-9.8670e-04,0.76,0.72
-9.8669e-04,0.76,0.76
-9.8667e-04,0.76,0.72
-9.8666e-04,0.76,0.76
-9.8664e-04,0.76,0.72
-9.8662e-04,0.72,0.76
-9.8661e-04,0.76,0.72
-9.8659e-04,0.72,0.76
-9.8658e-04,0.76,0.72
-9.8656e-04,0.76,0.76
-9.8654e-04,0.72,0.72
-9.8653e-04,0.76,0.76
-9.8651e-04,0.76,0.72
-9.8650e-04,0.72,0.76
-9.8648e-04,0.76,0.72
-9.8646e-04,0.76,0.76
-9.8645e-04,0.76,0.72
-9.8643e-04,0.76,0.76
-9.8642e-04,0.76,0.72
-9.8640e-04,0.76,0.76
-9.8638e-04,0.72,0.72
-9.8637e-04,0.76,0.8
-9.8635e-04,0.72,0.72
-9.8634e-04,0.76,0.76
-9.8632e-04,0.76,0.72
-9.8630e-04,0.76,0.76
-9.8629e-04,0.76,0.72
-9.8627e-04,0.8,0.76
-9.8626e-04,0.76,0.72
-9.8624e-04,0.76,0.8
-9.8622e-04,0.8,0.72
-9.8621e-04,0.76,0.8
-9.8619e-04,0.76,0.72
-9.8618e-04,0.76,0.8
-9.8616e-04,0.8,0.76
-9.8614e-04,0.76,0.76
-9.8613e-04,0.8,0.72
-9.8611e-04,0.8,0.8
-9.8610e-04,0.76,0.76
-9.8608e-04,0.76,0.8
-9.8606e-04,0.76,0.76
-9.8605e-04,0.76,0.8
-9.8603e-04,0.76,0.76
-9.8602e-04,0.8,0.76
-9.8600e-04,0.76,0.76
-9.8598e-04,0.76,0.8
-9.8597e-04,0.8,0.72
-9.8595e-04,0.76,0.8
-9.8594e-04,0.76,0.72
-9.8592e-04,0.76,0.8
-9.8590e-04,0.8,0.76
-9.8589e-04,0.76,0.8
-9.8587e-04,0.8,0.76
-9.8586e-04,0.76,0.8
-9.8584e-04,0.8,0.76
-9.8582e-04,0.76,0.8
-9.8581e-04,0.8,0.76
-9.8579e-04,0.76,0.8
-9.8578e-04,0.76,0.76
-9.8576e-04,0.76,0.8
-9.8574e-04,0.76,0.76
-9.8573e-04,0.76,0.8
-9.8571e-04,0.8,0.72
-9.8570e-04,0.76,0.8
-9.8568e-04,0.8,0.76
-9.8566e-04,0.8,0.8
-9.8565e-04,0.76,0.76
-9.8563e-04,0.8,0.8
-9.8562e-04,0.8,0.76
-9.8560e-04,0.8,0.8
-9.8558e-04,0.76,0.76
-9.8557e-04,0.8,0.8
-9.8555e-04,0.8,0.76
-9.8554e-04,0.8,0.8
-9.8552e-04,0.8,0.76
-9.8550e-04,0.76,0.8
-9.8549e-04,0.8,0.76
-9.8547e-04,0.76,0.8
-9.8546e-04,0.8,0.76
-9.8544e-04,0.8,0.8
-9.8542e-04,0.8,0.76
-9.8541e-04,0.8,0.8
-9.8539e-04,0.8,0.76
-9.8538e-04,0.8,0.84
-9.8536e-04,0.8,0.76
-9.8534e-04,0.8,0.8
